{
   "1pApplyChanges": {
      "description": "English: Apply changes",
      "message": "Verkställ ändringar"
   },
   "1pExport": {
      "description": "English: Export",
      "message": "Exportera"
   },
   "1pExportFilename": {
      "description": "English: my-ublock-static-filters_{{datetime}}.txt",
      "message": "mina-ublock-statiska-filter_{{datetime}}.txt"
   },
   "1pFormatHint": {
      "description": "English: One filter per line. A filter can be a plain hostname, or an Adblock Plus-compatible filter. Lines prefixed with &lsquo;!&rsquo; will be ignored.",
      "message": "Ett filter per rad. Ett filter kan vara ett vanligt värdnamn eller ett Adblock Plus-kompatibelt filter. Rader med prefixet &lsquo;!&rsquo; kommer att ignoreras."
   },
   "1pImport": {
      "description": "English: Import and append",
      "message": "Importera och lägg till"
   },
   "1pPageName": {
      "description": "appears as tab name in dashboard",
      "message": "Mina filter"
   },
   "3pApplyChanges": {
      "description": "English: Apply changes",
      "message": "Verkställ ändringar"
   },
   "3pAutoUpdatePrompt1": {
      "description": "A checkbox in the _3rd-party filters_ pane",
      "message": "Uppdatera filterlistor automatiskt."
   },
   "3pExternalListNew": {
      "description": "English: new version available",
      "message": "ny version tillgänglig"
   },
   "3pExternalListObsolete": {
      "description": "a filter list is 'out of date' (possibly needs to be updated)",
      "message": "föråldrad"
   },
   "3pExternalListPurge": {
      "description": "English: purge cache",
      "message": "Rensa cache"
   },
   "3pExternalListsApply": {
      "description": "English: Parse",
      "message": "Verkställ"
   },
   "3pExternalListsHint": {
      "description": "English: One URL per line. Lines prefixed with &lsquo;!&rsquo; will be ignored. Invalid URLs will be silently ignored.",
      "message": "En adress per rad. Rader med prefixet &lsquo;!&rsquo; kommer att ignoreras. Ogiltiga adresser kommer också ignoreras."
   },
   "3pGroupAds": {
      "description": "English: Ads",
      "message": "Annonser"
   },
   "3pGroupCustom": {
      "description": "English: Custom",
      "message": "Egna filter"
   },
   "3pGroupMalware": {
      "description": "English: Malware domains",
      "message": "Malware"
   },
   "3pGroupMultipurpose": {
      "description": "English: Multipurpose",
      "message": "Universalfilter"
   },
   "3pGroupPrivacy": {
      "description": "English: Privacy",
      "message": "Sekretess"
   },
   "3pGroupRegions": {
      "description": "English: Regions, languages",
      "message": "Regioner, språk"
   },
   "3pGroupSocial": {
      "description": "English: Social",
      "message": "Socialt"
   },
   "3pIgnoreGenericCosmeticFilters": {
      "description": "This will cause uBO to ignore all generic cosmetic filters.",
      "message": "Ignorera allmänna kosmetiska filter."
   },
   "3pIgnoreGenericCosmeticFiltersInfo": {
      "description": "Describes the purpose of the 'Ignore generic cosmetic filters' feature.",
      "message": "\u003Cp>Allmänna kosmetiska filter är de kosmetiska filter som är menade att användas på alla webbplatser.\u003Cp>Även om de hanteras effektivt av Ads Killer Plus så kan de bidra mätbart till en högre minnes- och processoranvändning på vissa webbsidor, särskilt stora sidor och sidor som är öppna en länge tid.\u003Cp>Aktiverar du den här inställning så eliminerar du den extra minnes- och processoranvändningen som allmänna kosmetiska filter medför och minskar också minnesanvändningen för Ads Killer Plus som sådant.\u003Cp>Vi rekommenderar att du aktiverar inställningen på mindre kraftfulla enheter."
   },
   "3pLastUpdate": {
      "description": "English: Last update: {{ago}}, where 'ago' will be replaced with something like '2 days ago'",
      "message": "Senaste uppdatering: {{ago}}"
   },
   "3pListsOfBlockedHostsHeader": {
      "description": "English: Lists of blocked hosts",
      "message": "Listor över blockerade värdar"
   },
   "3pListsOfBlockedHostsPerListStats": {
      "description": "Appears aside each filter list in the _3rd-party filters_ pane",
      "message": "{{used}} använda av {{total}}"
   },
   "3pListsOfBlockedHostsPrompt": {
      "description": "Appears at the top of the _3rd-party filters_ pane",
      "message": "{{netFilterCount}} nätverksfilter ＋ {{cosmeticFilterCount}} kosmetiska filter från:"
   },
   "3pPageName": {
      "description": "appears as tab name in dashboard",
      "message": "Tredjepartsfilter"
   },
   "3pParseAllABPHideFiltersInfo": {
      "description": "Describes the purpose of the 'Parse and enforce cosmetic filters' feature.",
      "message": "\u003Cp>Det här alternativet aktiverar tolkning och applicering av \u003Ca href=\"https://adblockplus.org/en/faq_internal#elemhide\">Adblock Plus-kompatibla &ldquo;elementdöljningsfilter&rdquo;\u003C/a>. Dessa filter är i huvudsak kosmetiska. De tjänar till att dölja element som anses vara till visuella besvär och som inte kan bli blockerade av den nätförfrågningsbaserade filtreringsmotorn.\u003C/p>\u003Cp>Genom att aktivera denna funktion ökar Ads Killer Pluss minnesanvändning.\u003C/p>"
   },
   "3pParseAllABPHideFiltersPrompt1": {
      "description": "English: Parse and enforce Adblock+ element hiding filters.",
      "message": "Tolka och applicera kosmetiska filter."
   },
   "3pPurgeAll": {
      "description": "A button in the in the _3rd-party filters_ pane",
      "message": "Rensa all cache"
   },
   "3pUpdateNow": {
      "description": "A button in the in the _3rd-party filters_ pane",
      "message": "Uppdatera nu"
   },
   "aboutBackupDataButton": {
      "description": "Text for button to create a backup of all settings",
      "message": "Säkerhetskopiera till fil"
   },
   "aboutBackupFilename": {
      "description": "English: my-ublock-backup_{{datetime}}.txt",
      "message": "min-ublock-backup_{{datetime}}.txt"
   },
   "aboutChangelog": {
      "description": "English: Change log",
      "message": "Ändringslogg"
   },
   "aboutCode": {
      "description": "English: Source code (GPLv3)",
      "message": "Källkod (GPLv3)"
   },
   "aboutContributors": {
      "description": "English: Contributors",
      "message": "Bidragsgivare"
   },
   "aboutPageName": {
      "description": "appears as tab name in dashboard",
      "message": "Om"
   },
   "aboutResetDataButton": {
      "description": "English: Reset to default settings...",
      "message": "Återställ fabriksinställningar"
   },
   "aboutResetDataConfirm": {
      "description": "Message asking user to confirm reset",
      "message": "Alla dina inställningar kommer att raderas, och Ads Killer Plus kommer att starta om.\n\nÅterställ Ads Killer Plus till fabriksinställningar?"
   },
   "aboutRestoreDataButton": {
      "description": "English: Restore from file...",
      "message": "Återställ från fil"
   },
   "aboutRestoreDataConfirm": {
      "description": "Message asking user to confirm restore",
      "message": "Alla dina inställningar kommer att skrivas över med data som har säkerhetskopierats {{time}} och Ads Killer Plus kommer att starta om.\n\nVill du skriva över befintliga inställningar med säkerhetskopierad data?"
   },
   "aboutRestoreDataError": {
      "description": "Message to display when an error occurred during restore",
      "message": "Datan gick inte att läsa eller är ogiltig"
   },
   "aboutSupport": {
      "description": "A link for where to get support",
      "message": "Hjälp"
   },
   "aboutWiki": {
      "description": "English: project' wiki on Github",
      "message": "Wiki"
   },
   "advancedSettingsPageName": {
      "description": "Title for the advanced settings page",
      "message": "Avancerade inställningar"
   },
   "advancedSettingsWarning": {
      "description": "A warning to users at the top of 'Advanced settings' page",
      "message": "Varning! Ändra de avancerade inställningarna på egen risk."
   },
   "cloudDeviceNamePrompt": {
      "description": "used as a prompt for the user to provide a custom device name",
      "message": "Enhetens namn:"
   },
   "cloudNoData": {
      "description": "",
      "message": "...\n..."
   },
   "cloudPull": {
      "description": "tooltip",
      "message": "Importera från molnlagring"
   },
   "cloudPullAndMerge": {
      "description": "tooltip",
      "message": "Importera från molnlagring och slå ihop med nuvarande inställningar"
   },
   "cloudPush": {
      "description": "tooltip",
      "message": "Exportera till molnlagring"
   },
   "contextMenuTemporarilyAllowLargeMediaElements": {
      "description": "A context menu entry, present when large media elements have been blocked on the current site",
      "message": "Tillåt tillfälligt stora medieelement"
   },
   "dashboardName": {
      "description": "English: Ads Killer Plus — Dashboard",
      "message": "Ads Killer Plus — Kontrollpanel"
   },
   "description": {
      "message": "Tar bort annonser från alla webbplatser!"
   },
   "docblockedBack": {
      "description": "English: Go back",
      "message": "Gå tillbaka"
   },
   "docblockedClose": {
      "description": "English: Close this window",
      "message": "Stäng detta fönster"
   },
   "docblockedDisablePermanent": {
      "description": "English: Permanently",
      "message": "Permanent"
   },
   "docblockedDisableTemporary": {
      "description": "English: Temporarily",
      "message": "Temporärt"
   },
   "docblockedFoundIn": {
      "description": "English: List of filter list names follows",
      "message": "Hittades i:"
   },
   "docblockedNoParamsPrompt": {
      "description": "label to be used for the parameter-less URL: https://cloud.githubusercontent.com/assets/585534/9832014/bfb1b8f0-593b-11e5-8a27-fba472a5529a.png",
      "message": "utan parametrar"
   },
   "docblockedProceed": {
      "description": "English: Disable strict blocking for {{hostname}} ...",
      "message": "Avaktivera strikt blockering av {{hostname}}"
   },
   "docblockedPrompt1": {
      "description": "English: Ads Killer Plus has prevented the following page from loading:",
      "message": "Ads Killer Plus har förhindrat följande sida från att ladda:"
   },
   "docblockedPrompt2": {
      "description": "English: Because of the following filter",
      "message": "P.g.a. följande filter"
   },
   "dummy": {
      "description": "so we dont need to deal with comma for last entry",
      "message": "This entry must be the last one"
   },
   "elapsedManyDaysAgo": {
      "description": "English: {{value}} days ago",
      "message": "{{value}} dagar sen"
   },
   "elapsedManyHoursAgo": {
      "description": "English: {{value}} hours ago",
      "message": "{{value}} timmar sedan"
   },
   "elapsedManyMinutesAgo": {
      "description": "English: {{value}} minutes ago",
      "message": "{{value}} minuter sedan"
   },
   "elapsedOneDayAgo": {
      "description": "English: a day ago",
      "message": "en dag sen"
   },
   "elapsedOneHourAgo": {
      "description": "English: an hour ago",
      "message": "en timme sedan"
   },
   "elapsedOneMinuteAgo": {
      "description": "English: a minute ago",
      "message": "en minut sedan"
   },
   "errorCantConnectTo": {
      "description": "English: Network error: unable to connect to {{url}}",
      "message": "Det gick inte att ansluta till {{url}}"
   },
   "fennecMenuItemBlockingOff": {
      "description": "Firefox-specific: appears as 'Ads Killer Plus (off)'",
      "message": "av"
   },
   "genericApplyChanges": {
      "description": "for generic 'Apply changes' buttons",
      "message": "Verkställ ändringarna"
   },
   "genericBytes": {
      "description": "",
      "message": "byte"
   },
   "genericRevert": {
      "description": "for generic 'Revert' buttons",
      "message": "Ångra"
   },
   "genericSubmit": {
      "description": "for generic 'Submit' buttons",
      "message": "Skicka"
   },
   "logAll": {
      "description": "Appears in the logger's tab selector",
      "message": "Alla"
   },
   "logBehindTheScene": {
      "description": "Pretty name for behind-the-scene network requests",
      "message": "Under huven"
   },
   "logFilterPrompt": {
      "description": "English: filter log entries",
      "message": "filtrera loggposter"
   },
   "logMaxEntriesTip": {
      "description": "Tooltip informaing that the input field is to set the maximum number of entries in the log",
      "message": "Maximalt antal loggposter"
   },
   "logRequestsHeaderDomain": {
      "description": "English: Domain",
      "message": "Domän"
   },
   "logRequestsHeaderFilter": {
      "description": "English: Filter",
      "message": "Filter"
   },
   "logRequestsHeaderType": {
      "description": "English: Type",
      "message": "Typ"
   },
   "logRequestsHeaderURL": {
      "description": "English: URL",
      "message": "URL"
   },
   "loggerStaticFilteringFinderSentence1": {
      "description": "Below this sentence, the filter lists in which the filter was found",
      "message": "Det statiska filtret {{filter}} hittades i:"
   },
   "loggerStaticFilteringHeader": {
      "description": "Small header to identify the static filtering section",
      "message": "Statisk filtrering"
   },
   "loggerStaticFilteringSentence": {
      "description": "Used in the static filtering wizard",
      "message": "{{action}} nätverksförfrågningar av {{type}} {{br}}vilkas URL matchar {{url}} {{br}}och som kommer {{origin}},{{br},{importance}} det finns ett matchande undantagsfilter."
   },
   "loggerStaticFilteringSentencePartAllow": {
      "description": "Used in the static filtering wizard",
      "message": "Tillåt"
   },
   "loggerStaticFilteringSentencePartAnyOrigin": {
      "description": "Used in the static filtering wizard",
      "message": "var som helst"
   },
   "loggerStaticFilteringSentencePartAnyType": {
      "description": "Used in the static filtering wizard",
      "message": "alla typer"
   },
   "loggerStaticFilteringSentencePartBlock": {
      "description": "Used in the static filtering wizard",
      "message": "Blockera"
   },
   "loggerStaticFilteringSentencePartImportant": {
      "description": "Used in the static filtering wizard",
      "message": "även om"
   },
   "loggerStaticFilteringSentencePartNotImportant": {
      "description": "Used in the static filtering wizard",
      "message": "utom när"
   },
   "loggerStaticFilteringSentencePartOrigin": {
      "description": "Used in the static filtering wizard",
      "message": "från \"{{origin}}\""
   },
   "loggerStaticFilteringSentencePartType": {
      "description": "Used in the static filtering wizard",
      "message": "typ \"{{type}}\""
   },
   "loggerURLFilteringContextLabel": {
      "description": "Label for the context selector",
      "message": "Sammanhang:"
   },
   "loggerURLFilteringHeader": {
      "description": "Small header to identify the dynamic URL filtering section",
      "message": "Dynamisk adressfiltrering"
   },
   "loggerURLFilteringTypeLabel": {
      "description": "Label for the type selector",
      "message": "Typ:"
   },
   "name": {
      "message": "Ads Killer Adblocker Plus"
   },
   "pickerContextMenuEntry": {
      "description": "English: Block element",
      "message": "Blockera element"
   },
   "pickerCosmeticFilters": {
      "description": "English: Cosmetic filters",
      "message": "Kosmetiska filter"
   },
   "pickerCosmeticFiltersHint": {
      "description": "English: Click, Ctrl-click",
      "message": "Klick, Ctrl-klick"
   },
   "pickerCreate": {
      "description": "English: Create",
      "message": "Skapa"
   },
   "pickerNetFilters": {
      "description": "English: header for a type of filter in the element picker dialog",
      "message": "Nätfilter"
   },
   "pickerPick": {
      "description": "English: Pick",
      "message": "Välj"
   },
   "pickerPreview": {
      "description": "Element picker preview mode: will cause the elements matching the current filter to be removed from the page",
      "message": "Förhandsgranska"
   },
   "pickerQuit": {
      "description": "English: Quit",
      "message": "Avsluta"
   },
   "popup1pScriptRulePrompt": {
      "description": "",
      "message": "förstapartskript"
   },
   "popup3pAnyRulePrompt": {
      "description": "",
      "message": "Tredjepart"
   },
   "popup3pFrameRulePrompt": {
      "description": "",
      "message": "tredjepartsramar"
   },
   "popup3pPassiveRulePrompt": {
      "description": "",
      "message": "Tredjeparts-css/bilder"
   },
   "popup3pScriptRulePrompt": {
      "description": "",
      "message": "tredjepartsskript"
   },
   "popupAnyRulePrompt": {
      "description": "",
      "message": "alla"
   },
   "popupBlockedOnThisPagePrompt": {
      "description": "English: on this page",
      "message": "på denna sida"
   },
   "popupBlockedRequestPrompt": {
      "description": "English: requests blocked",
      "message": "blockerade förfrågningar"
   },
   "popupBlockedSinceInstallPrompt": {
      "description": "English: since install",
      "message": "sedan installation"
   },
   "popupBlockedStats": {
      "description": "Example: 15 or 13%",
      "message": "{{count}} eller {{percent}}%"
   },
   "popupHitDomainCount": {
      "description": "appears in popup",
      "message": "{{count}} av {{total}}"
   },
   "popupHitDomainCountPrompt": {
      "description": "appears in popup",
      "message": "anslutna domäner"
   },
   "popupImageRulePrompt": {
      "description": "",
      "message": "bilder"
   },
   "popupInlineScriptRulePrompt": {
      "description": "",
      "message": "inline skript"
   },
   "popupOr": {
      "description": "English: or",
      "message": "eller"
   },
   "popupPowerSwitchInfo": {
      "description": "English: Click: disable/enable Ads Killer Plus for this site.\n\nCtrl+click: disable Ads Killer Plus only on this page.",
      "message": "Klick: avaktivera/aktivera Ads Killer Plus för denna hemsida permanent.\n\nCtrl+klick: avaktivera Ads Killer Plus endast för denna sida."
   },
   "popupTipDashboard": {
      "description": "English: Click to open the dashboard",
      "message": "Klicka för att öppna kontrollpanelen"
   },
   "popupTipGlobalRules": {
      "description": "Tooltip when hovering the top-most cell of the global-rules column.",
      "message": "Globala regler: denna kolumn avser regler som gäller alla sidor."
   },
   "popupTipLocalRules": {
      "description": "Tooltip when hovering the top-most cell of the local-rules column.",
      "message": "Lokala regler: denna kolumn avser regler som endast gäller denna sida.\nLokala regler överskrider globala regler."
   },
   "popupTipLog": {
      "description": "Tooltip used for the logger icon in the panel",
      "message": "Öppna loggen"
   },
   "popupTipNoCosmeticFiltering": {
      "description": "Tooltip for the no-cosmetic-filtering per-site switch",
      "message": "Växla kosmetiska filter för denna sida"
   },
   "popupTipNoLargeMedia": {
      "description": "Tooltip for the no-large-media per-site switch",
      "message": "Ändra blockering av stora medieelement för denna sida"
   },
   "popupTipNoPopups": {
      "description": "Tooltip for the no-popups per-site switch",
      "message": "Växla blockering av popup-fönster för denna sida"
   },
   "popupTipNoRemoteFonts": {
      "description": "Tooltip for the no-remote-fonts per-site switch",
      "message": "Växla blockering för hämtning av typsnitt på sidan"
   },
   "popupTipPicker": {
      "description": "English: Enter element picker mode",
      "message": "Gå till elementväljarläge"
   },
   "popupTipRevertRules": {
      "description": "Tooltip when hovering over the eraser in the dynamic filtering pane.",
      "message": "Tryck för att ångra dina ändringar."
   },
   "popupTipSaveRules": {
      "description": "Tooltip when hovering over the padlock in the dynamic filtering pane.",
      "message": "Tryck för att göra ändringarna beständiga."
   },
   "rulesCommit": {
      "description": "This will persist temporary rules",
      "message": "Skicka"
   },
   "rulesDefaultFileName": {
      "description": "default file name to use",
      "message": "mina-ublock-dynamiska-regler_{{datetime}}.txt"
   },
   "rulesEdit": {
      "description": "Will enable manual-edit mode (textarea)",
      "message": "Redigera"
   },
   "rulesEditDiscard": {
      "description": "Will discard manually-edited content and exit manual-edit mode",
      "message": "Förkasta"
   },
   "rulesEditSave": {
      "description": "Will save manually-edited content and exit manual-edit mode",
      "message": "Spara"
   },
   "rulesExport": {
      "description": "",
      "message": "Exportera till fil"
   },
   "rulesFormatHint": {
      "description": "English: dynamic rule syntax and full documentation.",
      "message": "Regelsyntax: \u003Ccode>källa destination typ åtgärd\u003C/code> (\u003Ca href='https://github.com/gorhill/uBlock/wiki/Dynamic-filtering:-rule-syntax'>full dokumentation\u003C/a>)."
   },
   "rulesHint": {
      "description": "English: List of your dynamic filtering rules.",
      "message": "Lista över din dynamiska filterregler."
   },
   "rulesImport": {
      "description": "",
      "message": "Importera från fil"
   },
   "rulesPageName": {
      "description": "appears as tab name in dashboard",
      "message": "Mina regler"
   },
   "rulesPermanentHeader": {
      "description": "header",
      "message": "Permanenta regler"
   },
   "rulesRevert": {
      "description": "This will remove all temporary rules",
      "message": "Ångra"
   },
   "rulesTemporaryHeader": {
      "description": "header",
      "message": "Temporära regler"
   },
   "settingPerSiteSwitchGroup": {
      "description": "",
      "message": "Förvalt beteende"
   },
   "settingPerSiteSwitchGroupSynopsis": {
      "description": "",
      "message": "Dessa förinställda beteenden kan överskridas för varje sida"
   },
   "settingsAdvancedUserPrompt": {
      "description": "",
      "message": "Jag är en avancerad användare (\u003Ca href='https://github.com/gorhill/uBlock/wiki/Advanced-user-features'> obligatorisk läsning\u003C/a>)"
   },
   "settingsAdvancedUserSettings": {
      "description": "For the tooltip of a link which gives access to advanced settings",
      "message": "avancerade inställningar"
   },
   "settingsCloudStorageEnabledPrompt": {
      "description": "",
      "message": "Aktivera stöd för molnlagring"
   },
   "settingsCollapseBlockedPrompt": {
      "description": "English: Hide placeholders of blocked elements",
      "message": "Dölj platshållare för blockerade element"
   },
   "settingsColorBlindPrompt": {
      "description": "English: Color-blind friendly",
      "message": "Färgblindsanpassat"
   },
   "settingsContextMenuPrompt": {
      "description": "English: Make use of context menu where appropriate",
      "message": "Utnyttja kontextmenyn där så är lämpligt"
   },
   "settingsHyperlinkAuditingDisabledPrompt": {
      "description": "English: ",
      "message": "Stäng av hyperlänksrevidering"
   },
   "settingsIconBadgePrompt": {
      "description": "English: Show the number of blocked requests on the icon",
      "message": "Visa antalet blockerade förfrågningar på ikonen"
   },
   "settingsLastBackupPrompt": {
      "description": "English: Last backup:",
      "message": "Senaste säkerhetskopia:"
   },
   "settingsLastRestorePrompt": {
      "description": "English: Last restore:",
      "message": "Senast återställd:"
   },
   "settingsNoCosmeticFilteringPrompt": {
      "description": "",
      "message": "Stäng av kosmetisk filtrering"
   },
   "settingsNoLargeMediaPrompt": {
      "description": "",
      "message": "Blockera medieelement större än {{input:number}} kB"
   },
   "settingsNoRemoteFontsPrompt": {
      "description": "",
      "message": "Blockera externa typsnitt"
   },
   "settingsPageName": {
      "description": "appears as tab name in dashboard",
      "message": "Inställningar"
   },
   "settingsPrefetchingDisabledPrompt": {
      "description": "English: ",
      "message": "Stäng av hämtning i förhand (för att motverka anslutningar av blockerade förfrågningar)"
   },
   "settingsStorageUsed": {
      "description": "English: Storage used: {{}} bytes",
      "message": "Använt utrymme: {{value}} bytes"
   },
   "settingsTooltipsPrompt": {
      "description": "A checkbox in the Settings pane",
      "message": "Visa inte tipsrutor"
   },
   "settingsWebRTCIPAddressHiddenPrompt": {
      "description": "English: ",
      "message": "Förhindra WebRTC från att läcka lokala IP-adresser"
   },
   "short_name": {
      "message": "Ads Killer Adblocker Plus"
   },
   "showDashboardButton": {
      "description": "Firefox/Fennec-specific: Show Dashboard",
      "message": "Visa kontrollpanel"
   },
   "showNetworkLogButton": {
      "description": "Firefox/Fennec-specific: Show Logger",
      "message": "Visa nätverksbegäranslogg"
   },
   "statsPageName": {
      "description": "Title for the logger window",
      "message": "Ads Killer Plus — Logg för nätverksbegäran"
   },
   "subscriberConfirm": {
      "description": "English: The message seen by the user to confirm subscription to a ABP filter list",
      "message": "Ads Killer Plus: Lägg till följande URL till din skräddarsydda filterlista?\n\nTitel: \"{{title}}\"\nURL: {{url}}"
   },
   "whitelistApply": {
      "description": "English: Apply changes",
      "message": "Verkställ ändringar"
   },
   "whitelistExport": {
      "description": "English: Export",
      "message": "Exportera"
   },
   "whitelistExportFilename": {
      "description": "English: my-ublock-whitelist_{{datetime}}.txt",
      "message": "min-ublock-vitlista_{{datetime}}.txt"
   },
   "whitelistImport": {
      "description": "English: Import and append",
      "message": "Importera och lägg till"
   },
   "whitelistPageName": {
      "description": "appears as tab name in dashboard",
      "message": "Vitlista"
   },
   "whitelistPrompt": {
      "description": "English: An overview of the content of the dashboard's Whitelist pane.",
      "message": "Din lista över vilka värdnamn där Ads Killer Plus har inaktiveras. En post per rad. Ogiltiga värdnamn kommer att ignoreras."
   }
}
