{
   "1pApplyChanges": {
      "description": "English: Apply changes",
      "message": "Módosítások alkalmazása"
   },
   "1pExport": {
      "description": "English: Export",
      "message": "Exportál"
   },
   "1pExportFilename": {
      "description": "English: my-ublock-static-filters_{{datetime}}.txt",
      "message": "ublock-statikus-szabalyaim_{{datetime}}.txt"
   },
   "1pFormatHint": {
      "description": "English: One filter per line. A filter can be a plain hostname, or an Adblock Plus-compatible filter. Lines prefixed with &lsquo;!&rsquo; will be ignored.",
      "message": "Soronként egy szűrő. A szűrő lehet egy hostnév, vagy egy Adblock Plus kompatibilis szűrő.\nA &lsquo;!&rsquo; kezdetű sorok figyelmen kívül maradnak."
   },
   "1pImport": {
      "description": "English: Import and append",
      "message": "Importál és hozzáad"
   },
   "1pPageName": {
      "description": "appears as tab name in dashboard",
      "message": "Saját szűrők"
   },
   "3pApplyChanges": {
      "description": "English: Apply changes",
      "message": "Módosítások alkalmazása"
   },
   "3pAutoUpdatePrompt1": {
      "description": "A checkbox in the _3rd-party filters_ pane",
      "message": "Szűrőlisták automatikus frissítése."
   },
   "3pExternalListNew": {
      "description": "English: new version available",
      "message": "új verzió érhető el"
   },
   "3pExternalListObsolete": {
      "description": "a filter list is 'out of date' (possibly needs to be updated)",
      "message": "elavult"
   },
   "3pExternalListPurge": {
      "description": "English: purge cache",
      "message": "gyorsítótár ürítése"
   },
   "3pExternalListsApply": {
      "description": "English: Parse",
      "message": "Alkalmaz"
   },
   "3pExternalListsHint": {
      "description": "English: One URL per line. Lines prefixed with &lsquo;!&rsquo; will be ignored. Invalid URLs will be silently ignored.",
      "message": "Soronként egy URL. A &lsquo;!&rsquo; kezdetű sorok figyelmen kívül maradnak. A szabálytalan URL-ek szintén figyelmen kívül maradnak, hibajelzés nélkül."
   },
   "3pGroupAds": {
      "description": "English: Ads",
      "message": "Hirdetések"
   },
   "3pGroupCustom": {
      "description": "English: Custom",
      "message": "Saját"
   },
   "3pGroupMalware": {
      "description": "English: Malware domains",
      "message": "Malware domainek"
   },
   "3pGroupMultipurpose": {
      "description": "English: Multipurpose",
      "message": "Többcélú"
   },
   "3pGroupPrivacy": {
      "description": "English: Privacy",
      "message": "Adatvédelem"
   },
   "3pGroupRegions": {
      "description": "English: Regions, languages",
      "message": "Régiók, nyelvek"
   },
   "3pGroupSocial": {
      "description": "English: Social",
      "message": "Közösségi"
   },
   "3pIgnoreGenericCosmeticFilters": {
      "description": "This will cause uBO to ignore all generic cosmetic filters.",
      "message": "Általános kozmetikai szűrők figyelmen kívül hagyása"
   },
   "3pIgnoreGenericCosmeticFiltersInfo": {
      "description": "Describes the purpose of the 'Ignore generic cosmetic filters' feature.",
      "message": "\u003Cp>Az általános kozmetikai szűrők azok a kozmetikai szűrők, amelyek minden weboldalra érvényesek.\u003Cp>Ugyan a Ads Killer Plus hatékonyan kezeli őket, az általános kozmetikai szűrők mégis mérhetően magasabb memória és CPU használatot eredményezhetnek néhány weboldalon, főleg nagy, és régóta futóak esetében.\u003Cp>Ennek az opciónak a bekapcsolása kiküszöböli az általános kozmetikai szűrők kezeléséből a weboldalakon adódó memória és CPU használat többletet, továbbá csökkenti a Ads Killer Plus által foglalt memóriát is.\u003Cp>Ajánlott bekapcsolni ezt az opciót a gyengébb eszközökön."
   },
   "3pLastUpdate": {
      "description": "English: Last update: {{ago}}, where 'ago' will be replaced with something like '2 days ago'",
      "message": "Utolsó frissítés: {{ago}}"
   },
   "3pListsOfBlockedHostsHeader": {
      "description": "English: Lists of blocked hosts",
      "message": "Blokkolt hostokat tartalmazó listák"
   },
   "3pListsOfBlockedHostsPerListStats": {
      "description": "Appears aside each filter list in the _3rd-party filters_ pane",
      "message": "{{used}} használatban a listában lévő {{total}} szűrő közül"
   },
   "3pListsOfBlockedHostsPrompt": {
      "description": "Appears at the top of the _3rd-party filters_ pane",
      "message": "{{netFilterCount}} hálózati szűrők ＋ {{cosmeticFilterCount}} kozmetikai szűrők:"
   },
   "3pPageName": {
      "description": "appears as tab name in dashboard",
      "message": "Külső szűrők"
   },
   "3pParseAllABPHideFiltersInfo": {
      "description": "Describes the purpose of the 'Parse and enforce cosmetic filters' feature.",
      "message": "\u003Cp>Ez a beállítás engedélyezi az \u003Ca href=\"https://adblockplus.org/en/faq_internal#elemhide\">Adblock Plus-típusú &ldquo;elemelrejtő&rdquo; szűrőket\u003C/a>. Ezek kizárólag kozmetikai célokat szolgálnak; elrejtik egy webhely azon elemeit, amelyek vizuálisan zavaróak, de a hálózati lekérések alapján nem szűrhetők ki.\u003C/p>\u003Cp>A beállítás engedélyezése megnöveli a \u003Ci>Ads Killer Plus\u003C/i> memóriahasználatát.\u003C/p>"
   },
   "3pParseAllABPHideFiltersPrompt1": {
      "description": "English: Parse and enforce Adblock+ element hiding filters.",
      "message": "Értelmezze és alkalmazza a kozmetikai szűrőket."
   },
   "3pPurgeAll": {
      "description": "A button in the in the _3rd-party filters_ pane",
      "message": "Gyorsítótárak ürítése"
   },
   "3pUpdateNow": {
      "description": "A button in the in the _3rd-party filters_ pane",
      "message": "Frissítés most"
   },
   "aboutBackupDataButton": {
      "description": "Text for button to create a backup of all settings",
      "message": "Biztonsági mentés fájlba..."
   },
   "aboutBackupFilename": {
      "description": "English: my-ublock-backup_{{datetime}}.txt",
      "message": "ublock-mentesem_{{datetime}}.txt"
   },
   "aboutChangelog": {
      "description": "English: Change log",
      "message": "Változások listája"
   },
   "aboutCode": {
      "description": "English: Source code (GPLv3)",
      "message": "Forráskód (GPLv3)"
   },
   "aboutContributors": {
      "description": "English: Contributors",
      "message": "Közreműködők"
   },
   "aboutPageName": {
      "description": "appears as tab name in dashboard",
      "message": "Névjegy"
   },
   "aboutResetDataButton": {
      "description": "English: Reset to default settings...",
      "message": "Alapértelmezett beállítások visszaállítása..."
   },
   "aboutResetDataConfirm": {
      "description": "Message asking user to confirm reset",
      "message": "Az összes beállítás törlődik, utána a Ads Killer Plus újraindul.\n\nÁllítsa vissza a gyári beállításokat?"
   },
   "aboutRestoreDataButton": {
      "description": "English: Restore from file...",
      "message": "Biztonsági mentés visszaállítása fájlból..."
   },
   "aboutRestoreDataConfirm": {
      "description": "Message asking user to confirm restore",
      "message": "A jelenlegi beállítások felülíródnak a mentett adatokkal (mentési idő: {{time}}), utána a Ads Killer Plus újraindul.\n\nFelülírja a jelenlegi beállításokat a biztonsági mentéssel?"
   },
   "aboutRestoreDataError": {
      "description": "Message to display when an error occurred during restore",
      "message": "Nem olvasható vagy érvénytelen adat"
   },
   "aboutSupport": {
      "description": "A link for where to get support",
      "message": "Támogatás"
   },
   "aboutWiki": {
      "description": "English: project' wiki on Github",
      "message": "Wiki"
   },
   "advancedSettingsPageName": {
      "description": "Title for the advanced settings page",
      "message": "Haladó beállítások"
   },
   "advancedSettingsWarning": {
      "description": "A warning to users at the top of 'Advanced settings' page",
      "message": "Figyelem! Haladó beállítások, megváltoztatásuk csak saját felelősségre."
   },
   "cloudDeviceNamePrompt": {
      "description": "used as a prompt for the user to provide a custom device name",
      "message": "Ennek az eszköznek a neve:"
   },
   "cloudNoData": {
      "description": "",
      "message": "...\n..."
   },
   "cloudPull": {
      "description": "tooltip",
      "message": "Importálás a felhőszolgáltatásból"
   },
   "cloudPullAndMerge": {
      "description": "tooltip",
      "message": "Importálás a felhőből és egybevonás a jelenlegi beállításokkal"
   },
   "cloudPush": {
      "description": "tooltip",
      "message": "Exportálás a felhőszolgáltatásba"
   },
   "contextMenuTemporarilyAllowLargeMediaElements": {
      "description": "A context menu entry, present when large media elements have been blocked on the current site",
      "message": "Nagyméretű média elemek ideiglenes engedélyezése"
   },
   "dashboardName": {
      "description": "English: Ads Killer Plus — Dashboard",
      "message": "Ads Killer Plus — Vezérlőpult"
   },
   "description": {
      "message": "Eltávolítja a hirdetéseket az összes webhelyről!"
   },
   "docblockedBack": {
      "description": "English: Go back",
      "message": "Vissza"
   },
   "docblockedClose": {
      "description": "English: Close this window",
      "message": "Ablak bezárása"
   },
   "docblockedDisablePermanent": {
      "description": "English: Permanently",
      "message": "Véglegesen"
   },
   "docblockedDisableTemporary": {
      "description": "English: Temporarily",
      "message": "Ideiglenesen"
   },
   "docblockedFoundIn": {
      "description": "English: List of filter list names follows",
      "message": "Ezekben található:"
   },
   "docblockedNoParamsPrompt": {
      "description": "label to be used for the parameter-less URL: https://cloud.githubusercontent.com/assets/585534/9832014/bfb1b8f0-593b-11e5-8a27-fba472a5529a.png",
      "message": "paraméterek nélkül"
   },
   "docblockedProceed": {
      "description": "English: Disable strict blocking for {{hostname}} ...",
      "message": "Kapcsolja ki a szigorú tiltást a(z) {{hostname}} részére"
   },
   "docblockedPrompt1": {
      "description": "English: Ads Killer Plus has prevented the following page from loading:",
      "message": "Ads Killer Plus nem engedte a következő lap betöltését:"
   },
   "docblockedPrompt2": {
      "description": "English: Because of the following filter",
      "message": "A következő szűrő miatt"
   },
   "dummy": {
      "description": "so we dont need to deal with comma for last entry",
      "message": "Ez a bejegyzés utolsó kell hogy legyen"
   },
   "elapsedManyDaysAgo": {
      "description": "English: {{value}} days ago",
      "message": "{{value}} napja"
   },
   "elapsedManyHoursAgo": {
      "description": "English: {{value}} hours ago",
      "message": "{{value}} órája"
   },
   "elapsedManyMinutesAgo": {
      "description": "English: {{value}} minutes ago",
      "message": "{{value}} perce"
   },
   "elapsedOneDayAgo": {
      "description": "English: a day ago",
      "message": "egy napja"
   },
   "elapsedOneHourAgo": {
      "description": "English: an hour ago",
      "message": "egy órája"
   },
   "elapsedOneMinuteAgo": {
      "description": "English: a minute ago",
      "message": "egy perce"
   },
   "errorCantConnectTo": {
      "description": "English: Network error: unable to connect to {{url}}",
      "message": "Csatlakozás sikertelen a következő címhez: {{url}}"
   },
   "fennecMenuItemBlockingOff": {
      "description": "Firefox-specific: appears as 'Ads Killer Plus (off)'",
      "message": "kikapcsolva"
   },
   "genericApplyChanges": {
      "description": "for generic 'Apply changes' buttons",
      "message": "Módosítások alkalmazása"
   },
   "genericBytes": {
      "description": "",
      "message": "bájt"
   },
   "genericRevert": {
      "description": "for generic 'Revert' buttons",
      "message": "Visszaállítás"
   },
   "genericSubmit": {
      "description": "for generic 'Submit' buttons",
      "message": "Küldés"
   },
   "logAll": {
      "description": "Appears in the logger's tab selector",
      "message": "Összes"
   },
   "logBehindTheScene": {
      "description": "Pretty name for behind-the-scene network requests",
      "message": "Hálózati lekérések a háttérben"
   },
   "logFilterPrompt": {
      "description": "English: filter log entries",
      "message": "naplóbejegyzések szűrése"
   },
   "logMaxEntriesTip": {
      "description": "Tooltip informaing that the input field is to set the maximum number of entries in the log",
      "message": "Naplóbejegyzések maximális száma"
   },
   "logRequestsHeaderDomain": {
      "description": "English: Domain",
      "message": "Domain"
   },
   "logRequestsHeaderFilter": {
      "description": "English: Filter",
      "message": "Szűrő"
   },
   "logRequestsHeaderType": {
      "description": "English: Type",
      "message": "Típus"
   },
   "logRequestsHeaderURL": {
      "description": "English: URL",
      "message": "URL"
   },
   "loggerStaticFilteringFinderSentence1": {
      "description": "Below this sentence, the filter lists in which the filter was found",
      "message": "Statikus filter, amiben {{filter}} benne van:"
   },
   "loggerStaticFilteringHeader": {
      "description": "Small header to identify the static filtering section",
      "message": "Statikus szűrés"
   },
   "loggerStaticFilteringSentence": {
      "description": "Used in the static filtering wizard",
      "message": "Hálózati kérések {{action}} amik {{type}} {{br}} és illeszkednek a(z) {{url}} URL-re {{br}} és amik innen származnak: {{origin}},{{br},{importance}} van illeszkedő kivétel szűrő."
   },
   "loggerStaticFilteringSentencePartAllow": {
      "description": "Used in the static filtering wizard",
      "message": "engedélyezése"
   },
   "loggerStaticFilteringSentencePartAnyOrigin": {
      "description": "Used in the static filtering wizard",
      "message": "bárhonnan"
   },
   "loggerStaticFilteringSentencePartAnyType": {
      "description": "Used in the static filtering wizard",
      "message": "bármilyen típusúak"
   },
   "loggerStaticFilteringSentencePartBlock": {
      "description": "Used in the static filtering wizard",
      "message": "blokkolása"
   },
   "loggerStaticFilteringSentencePartImportant": {
      "description": "Used in the static filtering wizard",
      "message": "akkor is, ha"
   },
   "loggerStaticFilteringSentencePartNotImportant": {
      "description": "Used in the static filtering wizard",
      "message": "kivéve ha"
   },
   "loggerStaticFilteringSentencePartOrigin": {
      "description": "Used in the static filtering wizard",
      "message": "{{origin}}"
   },
   "loggerStaticFilteringSentencePartType": {
      "description": "Used in the static filtering wizard",
      "message": "„{{type}}” típusúak"
   },
   "loggerURLFilteringContextLabel": {
      "description": "Label for the context selector",
      "message": "Kontextus:"
   },
   "loggerURLFilteringHeader": {
      "description": "Small header to identify the dynamic URL filtering section",
      "message": "Dinamikus URL szűrő"
   },
   "loggerURLFilteringTypeLabel": {
      "description": "Label for the type selector",
      "message": "Típus:"
   },
   "name": {
      "message": "Ads Killer Adblocker Plus"
   },
   "pickerContextMenuEntry": {
      "description": "English: Block element",
      "message": "Elem blokkolása"
   },
   "pickerCosmeticFilters": {
      "description": "English: Cosmetic filters",
      "message": "Kozmetikai szűrők"
   },
   "pickerCosmeticFiltersHint": {
      "description": "English: Click, Ctrl-click",
      "message": "Klikk, Ctrl-klikk"
   },
   "pickerCreate": {
      "description": "English: Create",
      "message": "Létrehoz"
   },
   "pickerNetFilters": {
      "description": "English: header for a type of filter in the element picker dialog",
      "message": "Hálózati szűrők"
   },
   "pickerPick": {
      "description": "English: Pick",
      "message": "Választ"
   },
   "pickerPreview": {
      "description": "Element picker preview mode: will cause the elements matching the current filter to be removed from the page",
      "message": "Előnézet"
   },
   "pickerQuit": {
      "description": "English: Quit",
      "message": "Kilép"
   },
   "popup1pScriptRulePrompt": {
      "description": "",
      "message": "1st-party scriptek"
   },
   "popup3pAnyRulePrompt": {
      "description": "",
      "message": "külső féltől"
   },
   "popup3pFrameRulePrompt": {
      "description": "",
      "message": "3rd-party frame-ek"
   },
   "popup3pPassiveRulePrompt": {
      "description": "",
      "message": "3rd-party css/képek"
   },
   "popup3pScriptRulePrompt": {
      "description": "",
      "message": "3rd-party scriptek"
   },
   "popupAnyRulePrompt": {
      "description": "",
      "message": "minden"
   },
   "popupBlockedOnThisPagePrompt": {
      "description": "English: on this page",
      "message": "ezen a lapon"
   },
   "popupBlockedRequestPrompt": {
      "description": "English: requests blocked",
      "message": "blokkolt lekérések"
   },
   "popupBlockedSinceInstallPrompt": {
      "description": "English: since install",
      "message": "telepítés óta"
   },
   "popupBlockedStats": {
      "description": "Example: 15 or 13%",
      "message": "{{count}} vagy {{percent}}%"
   },
   "popupHitDomainCount": {
      "description": "appears in popup",
      "message": "{{count}}, összesen: {{total}}"
   },
   "popupHitDomainCountPrompt": {
      "description": "appears in popup",
      "message": "domain csatlakozik"
   },
   "popupImageRulePrompt": {
      "description": "",
      "message": "képek"
   },
   "popupInlineScriptRulePrompt": {
      "description": "",
      "message": "inline scriptek"
   },
   "popupOr": {
      "description": "English: or",
      "message": "vagy"
   },
   "popupPowerSwitchInfo": {
      "description": "English: Click: disable/enable Ads Killer Plus for this site.\n\nCtrl+click: disable Ads Killer Plus only on this page.",
      "message": "Klikk: Ads Killer Plus tiltása/engedélyezése ezen a webhelyen.\n\nCtrl+klikk: csak a jelenlegi oldal tiltása/engedélyezése."
   },
   "popupTipDashboard": {
      "description": "English: Click to open the dashboard",
      "message": "Kattintson ide a vezérlőpult megnyitásához"
   },
   "popupTipGlobalRules": {
      "description": "Tooltip when hovering the top-most cell of the global-rules column.",
      "message": "Globális szabályok: ebben az oszlopban azok a szabályok vannak, amelyek minden weboldalra vonatkoznak."
   },
   "popupTipLocalRules": {
      "description": "Tooltip when hovering the top-most cell of the local-rules column.",
      "message": "Lokális szabályok: ebben az oszlopban azok a szabályok vannak, amelyek csak a jelenlegi weboldalra vonatkoznak.\nA lokális szabályok felülírják a globális szabályokat."
   },
   "popupTipLog": {
      "description": "Tooltip used for the logger icon in the panel",
      "message": "Naplózott lekérések megtekintése"
   },
   "popupTipNoCosmeticFiltering": {
      "description": "Tooltip for the no-cosmetic-filtering per-site switch",
      "message": "Kozmetikai szűrés ki- és bekapcsolása ezen a weboldalon"
   },
   "popupTipNoLargeMedia": {
      "description": "Tooltip for the no-large-media per-site switch",
      "message": "Nagyméretű média elemek blokkolásának ki/bekapcsolása"
   },
   "popupTipNoPopups": {
      "description": "Tooltip for the no-popups per-site switch",
      "message": "Oldal összes felugró ablakának blokkolása/engedélyezése"
   },
   "popupTipNoRemoteFonts": {
      "description": "Tooltip for the no-remote-fonts per-site switch",
      "message": "Távoli betűkészletek blokkolásának ki/bekapcsolása ezen az oldalon"
   },
   "popupTipPicker": {
      "description": "English: Enter element picker mode",
      "message": "Elemválasztó mód aktiválása"
   },
   "popupTipRevertRules": {
      "description": "Tooltip when hovering over the eraser in the dynamic filtering pane.",
      "message": "Kattintson ide a módosítások visszavonásához."
   },
   "popupTipSaveRules": {
      "description": "Tooltip when hovering over the padlock in the dynamic filtering pane.",
      "message": "Kattintson a módosítások véglegesítéséhez."
   },
   "rulesCommit": {
      "description": "This will persist temporary rules",
      "message": "Alkalmaz"
   },
   "rulesDefaultFileName": {
      "description": "default file name to use",
      "message": "ublock-dinamikus-szabalyaim_{{datetime}}.txt"
   },
   "rulesEdit": {
      "description": "Will enable manual-edit mode (textarea)",
      "message": "Szerkesztés"
   },
   "rulesEditDiscard": {
      "description": "Will discard manually-edited content and exit manual-edit mode",
      "message": "Elvetés"
   },
   "rulesEditSave": {
      "description": "Will save manually-edited content and exit manual-edit mode",
      "message": "Mentés"
   },
   "rulesExport": {
      "description": "",
      "message": "Exportálás fájlba"
   },
   "rulesFormatHint": {
      "description": "English: dynamic rule syntax and full documentation.",
      "message": "Szabály szintaxis: \u003Ccode>forrás cél típus művelet\u003C/code> (\u003Ca href='https://github.com/gorhill/uBlock/wiki/Dynamic-filtering:-rule-syntax'>Teljes dokumentáció\u003C/a>)."
   },
   "rulesHint": {
      "description": "English: List of your dynamic filtering rules.",
      "message": "Saját szűrőszabályok listája."
   },
   "rulesImport": {
      "description": "",
      "message": "Importálás fájlból…"
   },
   "rulesPageName": {
      "description": "appears as tab name in dashboard",
      "message": "Saját szabályok"
   },
   "rulesPermanentHeader": {
      "description": "header",
      "message": "Állandó szabályok"
   },
   "rulesRevert": {
      "description": "This will remove all temporary rules",
      "message": "Visszaállítás"
   },
   "rulesTemporaryHeader": {
      "description": "header",
      "message": "Átmeneti szabályok"
   },
   "settingPerSiteSwitchGroup": {
      "description": "",
      "message": "Alapértelmezett viselkedés"
   },
   "settingPerSiteSwitchGroupSynopsis": {
      "description": "",
      "message": "Ezek az alapértelmezett viselkedések felülírhatóak weboldal-szinten"
   },
   "settingsAdvancedUserPrompt": {
      "description": "",
      "message": "Haladó felhasználó vagyok (\u003Ca href='https://github.com/gorhill/uBlock/wiki/Advanced-user-features'>További tudnivalók\u003C/a>)"
   },
   "settingsAdvancedUserSettings": {
      "description": "For the tooltip of a link which gives access to advanced settings",
      "message": "haladó beállítások"
   },
   "settingsCloudStorageEnabledPrompt": {
      "description": "",
      "message": "Felhőben tárolás bekapcsolása"
   },
   "settingsCollapseBlockedPrompt": {
      "description": "English: Hide placeholders of blocked elements",
      "message": "Blokkolt elemek helyőrzőinek elrejtése"
   },
   "settingsColorBlindPrompt": {
      "description": "English: Color-blind friendly",
      "message": "Színvak-barát"
   },
   "settingsContextMenuPrompt": {
      "description": "English: Make use of context menu where appropriate",
      "message": "Környezeti menü alkalmazása, ahol lehetséges"
   },
   "settingsHyperlinkAuditingDisabledPrompt": {
      "description": "English: ",
      "message": "Hivatkozás-vizsgálat kikapcsolása"
   },
   "settingsIconBadgePrompt": {
      "description": "English: Show the number of blocked requests on the icon",
      "message": "Jelenjen meg a blokkolt lekérések száma az ikonon"
   },
   "settingsLastBackupPrompt": {
      "description": "English: Last backup:",
      "message": "Utolsó biztonsági mentés:"
   },
   "settingsLastRestorePrompt": {
      "description": "English: Last restore:",
      "message": "Utolsó visszaállítás:"
   },
   "settingsNoCosmeticFilteringPrompt": {
      "description": "",
      "message": "Kozmetikai szűrés kikapcsolása"
   },
   "settingsNoLargeMediaPrompt": {
      "description": "",
      "message": "{{input:number}} kB-nál nagyobb média elemek blokkolása"
   },
   "settingsNoRemoteFontsPrompt": {
      "description": "",
      "message": "Távoli betűkészletek blokkolása"
   },
   "settingsPageName": {
      "description": "appears as tab name in dashboard",
      "message": "Beállítások"
   },
   "settingsPrefetchingDisabledPrompt": {
      "description": "English: ",
      "message": "Előtöltés kikapcsolása (kapcsolódás megakadályozása blokkolt hálózati lekérésekhez)"
   },
   "settingsStorageUsed": {
      "description": "English: Storage used: {{}} bytes",
      "message": "Tárolóhely használat: {{value}} byte"
   },
   "settingsTooltipsPrompt": {
      "description": "A checkbox in the Settings pane",
      "message": "Buboréksúgó (tooltip) kikapcsolása"
   },
   "settingsWebRTCIPAddressHiddenPrompt": {
      "description": "English: ",
      "message": "WebRTC helyi IP-cím szivárogtatásának megakadályozása"
   },
   "short_name": {
      "message": "Ads Killer Adblocker Plus"
   },
   "showDashboardButton": {
      "description": "Firefox/Fennec-specific: Show Dashboard",
      "message": "Vezérlőpult megnyitása"
   },
   "showNetworkLogButton": {
      "description": "Firefox/Fennec-specific: Show Logger",
      "message": "Napló mutatása"
   },
   "statsPageName": {
      "description": "Title for the logger window",
      "message": "Ads Killer Plus — Hálózati lekérések naplója"
   },
   "subscriberConfirm": {
      "description": "English: The message seen by the user to confirm subscription to a ABP filter list",
      "message": "Ads Killer Plus: Hozzáadja a következő URL-t a saját szűrő listákhoz?\n\nNév: \"{{title}}\"\nURL: \"{{url}}\""
   },
   "whitelistApply": {
      "description": "English: Apply changes",
      "message": "Módosítások alkalmazása"
   },
   "whitelistExport": {
      "description": "English: Export",
      "message": "Exportál"
   },
   "whitelistExportFilename": {
      "description": "English: my-ublock-whitelist_{{datetime}}.txt",
      "message": "ublock-kiveteleim_{{datetime}}.txt"
   },
   "whitelistImport": {
      "description": "English: Import and append",
      "message": "Importál és hozzáad"
   },
   "whitelistPageName": {
      "description": "appears as tab name in dashboard",
      "message": "Kivételek"
   },
   "whitelistPrompt": {
      "description": "English: An overview of the content of the dashboard's Whitelist pane.",
      "message": "Az alábbi listában felsorolt hostokon a kiegészítő nem fog működni. Soronként egy bejegyzés. Érvénytelen hostnevek figyelmen kívül maradnak."
   }
}
