{
   "1pApplyChanges": {
      "description": "English: Apply changes",
      "message": "পরিবর্তনগুলি প্রয়োগ"
   },
   "1pExport": {
      "description": "English: Export",
      "message": "রপ্তানি করুন"
   },
   "1pExportFilename": {
      "description": "English: my-ublock-static-filters_{{datetime}}.txt",
      "message": "amar-ublock-static-filters_{{datetime}}.txt"
   },
   "1pFormatHint": {
      "description": "English: One filter per line. A filter can be a plain hostname, or an Adblock Plus-compatible filter. Lines prefixed with &lsquo;!&rsquo; will be ignored.",
      "message": "লাইন প্রতি একটি ফিল্টার। একটি ফিল্টার স্পষ্ট হোস্টনেম বা অ্যাডব্লক প্লাস-সামঞ্জস্যপূর্ণ ফিল্টার হতে পারে। &lsquo;!&rsquo; সহ উপসর্গ লাইন উপেক্ষা করা হবে।"
   },
   "1pImport": {
      "description": "English: Import and append",
      "message": "আমদানি ও পরিশেষে যোগ করুন"
   },
   "1pPageName": {
      "description": "appears as tab name in dashboard",
      "message": "আমার ফিল্টারস"
   },
   "3pApplyChanges": {
      "description": "English: Apply changes",
      "message": "পরিবর্তনগুলি প্রয়োগ"
   },
   "3pAutoUpdatePrompt1": {
      "description": "A checkbox in the _3rd-party filters_ pane",
      "message": "ফিল্টার তালিকা স্বয়ংক্রিয়-হালনাগাদ করুন।"
   },
   "3pExternalListNew": {
      "description": "English: new version available",
      "message": "নতুন সংস্করণ উপলব্ধ"
   },
   "3pExternalListObsolete": {
      "description": "a filter list is 'out of date' (possibly needs to be updated)",
      "message": "পুরোনো"
   },
   "3pExternalListPurge": {
      "description": "English: purge cache",
      "message": "ক্যাশে শোধন করুন"
   },
   "3pExternalListsApply": {
      "description": "English: Parse",
      "message": "পার্স"
   },
   "3pExternalListsHint": {
      "description": "English: One URL per line. Lines prefixed with &lsquo;!&rsquo; will be ignored. Invalid URLs will be silently ignored.",
      "message": "লাইন প্রতি একটি URL। &lsquo;!&rsquo; সহ উপসর্গ লাইন উপেক্ষা করা হবে। অকার্যকর URL গুলি নীরবে উপেক্ষা করা হবে।"
   },
   "3pGroupAds": {
      "description": "English: Ads",
      "message": "বিজ্ঞাপন"
   },
   "3pGroupCustom": {
      "description": "English: Custom",
      "message": "স্বনির্ধারিত"
   },
   "3pGroupMalware": {
      "description": "English: Malware domains",
      "message": "ম্যালওয়্যার ডোমেইন"
   },
   "3pGroupMultipurpose": {
      "description": "English: Multipurpose",
      "message": "বহুমুখী"
   },
   "3pGroupPrivacy": {
      "description": "English: Privacy",
      "message": "গোপনীয়তা"
   },
   "3pGroupRegions": {
      "description": "English: Regions, languages",
      "message": "অঞ্চল, ভাষা"
   },
   "3pGroupSocial": {
      "description": "English: Social",
      "message": "সামাজিক"
   },
   "3pIgnoreGenericCosmeticFilters": {
      "description": "This will cause uBO to ignore all generic cosmetic filters.",
      "message": "জেরেরিক প্রসাধনী ছাঁকনি উপেক্ষা করুন।"
   },
   "3pIgnoreGenericCosmeticFiltersInfo": {
      "description": "Describes the purpose of the 'Ignore generic cosmetic filters' feature.",
      "message": "\u003Cp>জেনেরিক প্রসাধনী ছাঁকনি হচ্ছে সেইসব প্রসাধনী ছাঁকনি যা সব ওয়েবসাইটে প্রয়োগের জন্য অভিপ্রেত।\u003Cp>যদিও তা Ads Killer Plus দ্বারা দক্ষতার সঙ্গে পরিচালনা করে, কিন্তু জেনেরিক প্রসাধন ফিল্টার এখনও কিছু ওয়েব পাতার পরিমাপযোগ্য মেমরি ও CPU-র অত্যাধিক চাপ সৃষ্টিতে অবদান রাখতে পারে, বিশেষ করে বড় এবং দীর্ঘ একটিতে।\u003Cp>এই অপশন সক্রিয় করলে জেনেরিক প্রসাধনী ছাঁকনি পরিচালিত হবে যা ওয়েব পাতার পরিমাপযোগ্য মেমরি ও CPU-র অত্যাধিক চাপ সৃষ্টি দূর করবে এবং Ads Killer Plus নিজেই মেমরি পদাঙ্ক অর্ধ করবে।\u003Cp>এটা কম শক্তিশালী ডিভাইসে এই অপশনটি সক্রিয় করার জন্য সুপারিশ করা হচ্ছে।"
   },
   "3pLastUpdate": {
      "description": "English: Last update: {{ago}}, where 'ago' will be replaced with something like '2 days ago'",
      "message": "সর্বশেষ হালনাগাদ: {{ago}}"
   },
   "3pListsOfBlockedHostsHeader": {
      "description": "English: Lists of blocked hosts",
      "message": "অবরুদ্ধ হোস্টের তালিকা"
   },
   "3pListsOfBlockedHostsPerListStats": {
      "description": "Appears aside each filter list in the _3rd-party filters_ pane",
      "message": "{{total}}টির মধ্যে {{used}}টি ব্যবহৃত"
   },
   "3pListsOfBlockedHostsPrompt": {
      "description": "Appears at the top of the _3rd-party filters_ pane",
      "message": "এ থেকে {{netFilterCount}}টি নেটওয়ার্ক ফিল্টার + {{cosmeticFilterCount}}টি প্রসাধনী ফিল্টার:"
   },
   "3pPageName": {
      "description": "appears as tab name in dashboard",
      "message": "তৃতীয় পক্ষের ফিল্টারস"
   },
   "3pParseAllABPHideFiltersInfo": {
      "description": "Describes the purpose of the 'Parse and enforce cosmetic filters' feature.",
      "message": "\u003Cp>এই অপশনটি \u003Ca href=\"https://adblockplus.org/en/faq_internal#elemhide\">অ্যাডব্লক-প্লাসের সামঞ্জস্যপূর্ণ &ldquo;উপাদান আড়াল করার&rdquo; ফিল্টারকে\u003C/a> সক্রিয় করবে। এই ফিল্টারগুলি মূলত প্রসাধনী, তাদের একটি ওয়েব পাতায় উপাদান আড়াল করতে প্রয়োজন হয় যাকে চাক্ষুষ উত্পাত বলিয়া গণ্য করা হয়, এবং যাদের নেট অনুরোধ ভিত্তিক ফিল্টারিং ইঞ্জিন দ্বারা অবরুদ্ধ করা যায় না।\u003C/p>\u003Cp>এই বৈশিষ্ট্য সক্রিয় করলে Ads Killer Plus-এর মেমরির পদচিহ্ন বৃদ্ধি পাবে।\u003C/p>"
   },
   "3pParseAllABPHideFiltersPrompt1": {
      "description": "English: Parse and enforce Adblock+ element hiding filters.",
      "message": "প্রসাধনী ফিল্টার পার্স ও কার্যকর করুন।"
   },
   "3pPurgeAll": {
      "description": "A button in the in the _3rd-party filters_ pane",
      "message": "সব ক্যাশে শোধন করুন"
   },
   "3pUpdateNow": {
      "description": "A button in the in the _3rd-party filters_ pane",
      "message": "এখনই হালনাগাদ করুন"
   },
   "aboutBackupDataButton": {
      "description": "Text for button to create a backup of all settings",
      "message": "ফাইলে ব্যাকআপ"
   },
   "aboutBackupFilename": {
      "description": "English: my-ublock-backup_{{datetime}}.txt",
      "message": "amar-ublock-backup_{{datetime}}.txt"
   },
   "aboutChangelog": {
      "description": "English: Change log",
      "message": "পরিবর্তন লগ"
   },
   "aboutCode": {
      "description": "English: Source code (GPLv3)",
      "message": "উত্স কোড (GPLv৩)"
   },
   "aboutContributors": {
      "description": "English: Contributors",
      "message": "অবদানকারী"
   },
   "aboutPageName": {
      "description": "appears as tab name in dashboard",
      "message": "সম্পর্কে"
   },
   "aboutResetDataButton": {
      "description": "English: Reset to default settings...",
      "message": "ডিফল্ট সেটিংসে পুন:স্থাপন করুন..."
   },
   "aboutResetDataConfirm": {
      "description": "Message asking user to confirm reset",
      "message": "আপনার সব সেটিংস বাতিল করা হবে, এবং Ads Killer Plus পুনরায় চালু হবে।\n\nAds Killer Plus সেটিংস পুনঃস্থাপন করবেন?"
   },
   "aboutRestoreDataButton": {
      "description": "English: Restore from file...",
      "message": "ফাইল থেকে পুনরুদ্ধার..."
   },
   "aboutRestoreDataConfirm": {
      "description": "Message asking user to confirm restore",
      "message": "{{time}}-এর ডেটা ব্যাকআপ ব্যবহার করে আপনার সেটিংস পুনঃলিখিত হবে, এবং Ads Killer Plus পুনরায় চালু হবে।\n\nডেটা ব্যাকআপ ব্যবহার করে সমস্ত বিদ্যমান সেটিংস পুনঃলিখবেন?"
   },
   "aboutRestoreDataError": {
      "description": "Message to display when an error occurred during restore",
      "message": "উপাত্তটি পড়া যায়নি বা অকার্যকর"
   },
   "aboutSupport": {
      "description": "A link for where to get support",
      "message": "সমর্থন"
   },
   "aboutWiki": {
      "description": "English: project' wiki on Github",
      "message": "উইকি"
   },
   "advancedSettingsPageName": {
      "description": "Title for the advanced settings page",
      "message": "উন্নত সেটিংস"
   },
   "advancedSettingsWarning": {
      "description": "A warning to users at the top of 'Advanced settings' page",
      "message": "সতর্কবাণী! আপনার নিজ ঝুঁকিতে এই উন্নত সেটিংগুলি পরিবর্তন করুন।"
   },
   "cloudDeviceNamePrompt": {
      "description": "used as a prompt for the user to provide a custom device name",
      "message": "এই ডিভাইসের নাম:"
   },
   "cloudNoData": {
      "description": "",
      "message": "...\n..."
   },
   "cloudPull": {
      "description": "tooltip",
      "message": "ক্লাউড সঞ্চয় থেকে আমদানি করুন"
   },
   "cloudPullAndMerge": {
      "description": "tooltip",
      "message": "ক্লাউড সংগ্রহস্থল থেকে আমদানি করে বর্তমানে সেটিংসের সঙ্গে একত্রীকরণ করুন"
   },
   "cloudPush": {
      "description": "tooltip",
      "message": "ক্লাউড সঞ্চয়ে রপ্তানি করুন"
   },
   "contextMenuTemporarilyAllowLargeMediaElements": {
      "description": "A context menu entry, present when large media elements have been blocked on the current site",
      "message": "সাময়িকভাবে বৃহৎ মিডিয়া উপাদান মঞ্জুরি দিন"
   },
   "dashboardName": {
      "description": "English: Ads Killer Plus — Dashboard",
      "message": "Ads Killer Plus — ড্যাশবোর্ড"
   },
   "description": {
      "message": "সব ওয়েবসাইট থেকে বিজ্ঞাপন মুছে ফেলা!"
   },
   "docblockedBack": {
      "description": "English: Go back",
      "message": "ফিরে যান"
   },
   "docblockedClose": {
      "description": "English: Close this window",
      "message": "এই উইন্ডোটি বন্ধ করুন"
   },
   "docblockedDisablePermanent": {
      "description": "English: Permanently",
      "message": "স্থায়ীভাবে"
   },
   "docblockedDisableTemporary": {
      "description": "English: Temporarily",
      "message": "সাময়িকভাবে"
   },
   "docblockedFoundIn": {
      "description": "English: List of filter list names follows",
      "message": "যা এতে পাওয়া গেছে:"
   },
   "docblockedNoParamsPrompt": {
      "description": "label to be used for the parameter-less URL: https://cloud.githubusercontent.com/assets/585534/9832014/bfb1b8f0-593b-11e5-8a27-fba472a5529a.png",
      "message": "প্যারামিটার বিহীন"
   },
   "docblockedProceed": {
      "description": "English: Disable strict blocking for {{hostname}} ...",
      "message": "{{hostname}}-এর জন্য কঠোর অবরোধ নিষ্ক্রিয় করুন"
   },
   "docblockedPrompt1": {
      "description": "English: Ads Killer Plus has prevented the following page from loading:",
      "message": "uব্লক অরিজিন নিচের পৃষ্ঠা লোড করাকে প্রতিহত করেছে:"
   },
   "docblockedPrompt2": {
      "description": "English: Because of the following filter",
      "message": "নিম্নলিখিত ফিল্টারের কারণে"
   },
   "dummy": {
      "description": "so we dont need to deal with comma for last entry",
      "message": "This entry must be the last one"
   },
   "elapsedManyDaysAgo": {
      "description": "English: {{value}} days ago",
      "message": "{{value}} দিন আগে"
   },
   "elapsedManyHoursAgo": {
      "description": "English: {{value}} hours ago",
      "message": "{{value}} ঘণ্টা আগে"
   },
   "elapsedManyMinutesAgo": {
      "description": "English: {{value}} minutes ago",
      "message": "{{value}} মিনিট আগে"
   },
   "elapsedOneDayAgo": {
      "description": "English: a day ago",
      "message": "এক দিন আগে"
   },
   "elapsedOneHourAgo": {
      "description": "English: an hour ago",
      "message": "এক ঘণ্টা আগে"
   },
   "elapsedOneMinuteAgo": {
      "description": "English: a minute ago",
      "message": "এক মিনিট আগে"
   },
   "errorCantConnectTo": {
      "description": "English: Network error: unable to connect to {{url}}",
      "message": "{{url}} -এ সংযোগ করতে অক্ষম"
   },
   "fennecMenuItemBlockingOff": {
      "description": "Firefox-specific: appears as 'Ads Killer Plus (off)'",
      "message": "বন্ধ"
   },
   "genericApplyChanges": {
      "description": "for generic 'Apply changes' buttons",
      "message": "পরিবর্তনগুলি প্রয়োগ"
   },
   "genericBytes": {
      "description": "",
      "message": "বাইট"
   },
   "genericRevert": {
      "description": "for generic 'Revert' buttons",
      "message": "প্রত্যাবর্তন"
   },
   "genericSubmit": {
      "description": "for generic 'Submit' buttons",
      "message": "জমা দিন"
   },
   "logAll": {
      "description": "Appears in the logger's tab selector",
      "message": "সব"
   },
   "logBehindTheScene": {
      "description": "Pretty name for behind-the-scene network requests",
      "message": "পর্দার আড়ালে"
   },
   "logFilterPrompt": {
      "description": "English: filter log entries",
      "message": "ফিল্টার লগের ভুক্তি"
   },
   "logMaxEntriesTip": {
      "description": "Tooltip informaing that the input field is to set the maximum number of entries in the log",
      "message": "ভুক্তির সর্বাধিক সংখ্যা"
   },
   "logRequestsHeaderDomain": {
      "description": "English: Domain",
      "message": "ডোমেইন"
   },
   "logRequestsHeaderFilter": {
      "description": "English: Filter",
      "message": "ফিল্টার"
   },
   "logRequestsHeaderType": {
      "description": "English: Type",
      "message": "ধরন"
   },
   "logRequestsHeaderURL": {
      "description": "English: URL",
      "message": "URL"
   },
   "loggerStaticFilteringFinderSentence1": {
      "description": "Below this sentence, the filter lists in which the filter was found",
      "message": "স্থির ফিল্টার {{filter}} পাওয়া গেছে:"
   },
   "loggerStaticFilteringHeader": {
      "description": "Small header to identify the static filtering section",
      "message": "স্থির ফিল্টারিং"
   },
   "loggerStaticFilteringSentence": {
      "description": "Used in the static filtering wizard",
      "message": "{{type}}-এর নেটওয়ার্ক অনুরোধ {{action}} {{br}}যার URL ঠিকানা {{url}}-এর সাথে মিলেছে {{br}}এবং যার মূলভিত্তি {{origin}},{{br}} {{importance}} এখানে একটি মেলানো ব্যতিক্রম ফিল্টার আছে।"
   },
   "loggerStaticFilteringSentencePartAllow": {
      "description": "Used in the static filtering wizard",
      "message": "মঞ্জুর"
   },
   "loggerStaticFilteringSentencePartAnyOrigin": {
      "description": "Used in the static filtering wizard",
      "message": "যে কোন জায়গা থেকে"
   },
   "loggerStaticFilteringSentencePartAnyType": {
      "description": "Used in the static filtering wizard",
      "message": "যে কোন ধরন"
   },
   "loggerStaticFilteringSentencePartBlock": {
      "description": "Used in the static filtering wizard",
      "message": "অবরুদ্ধ করুন"
   },
   "loggerStaticFilteringSentencePartImportant": {
      "description": "Used in the static filtering wizard",
      "message": "এমনকি যদি"
   },
   "loggerStaticFilteringSentencePartNotImportant": {
      "description": "Used in the static filtering wizard",
      "message": "এছাড়া যখন"
   },
   "loggerStaticFilteringSentencePartOrigin": {
      "description": "Used in the static filtering wizard",
      "message": "“{{origin}}” থেকে"
   },
   "loggerStaticFilteringSentencePartType": {
      "description": "Used in the static filtering wizard",
      "message": "ধরন “{{type}}”"
   },
   "loggerURLFilteringContextLabel": {
      "description": "Label for the context selector",
      "message": "প্রসঙ্গ:"
   },
   "loggerURLFilteringHeader": {
      "description": "Small header to identify the dynamic URL filtering section",
      "message": "ডায়নামিক URL ফিল্টারিং"
   },
   "loggerURLFilteringTypeLabel": {
      "description": "Label for the type selector",
      "message": "ধরন:"
   },
   "name": {
      "message": "Ads Killer Adblocker Plus"
   },
   "pickerContextMenuEntry": {
      "description": "English: Block element",
      "message": "উপাদান অবরুদ্ধ করুন"
   },
   "pickerCosmeticFilters": {
      "description": "English: Cosmetic filters",
      "message": "প্রসাধনী ফিল্টার"
   },
   "pickerCosmeticFiltersHint": {
      "description": "English: Click, Ctrl-click",
      "message": "ক্লিক, Ctrl-ক্লিক"
   },
   "pickerCreate": {
      "description": "English: Create",
      "message": "তৈরি করুন"
   },
   "pickerNetFilters": {
      "description": "English: header for a type of filter in the element picker dialog",
      "message": "নেট ফিল্টার"
   },
   "pickerPick": {
      "description": "English: Pick",
      "message": "চয়ন করুন"
   },
   "pickerPreview": {
      "description": "Element picker preview mode: will cause the elements matching the current filter to be removed from the page",
      "message": "প্রাকদর্শন"
   },
   "pickerQuit": {
      "description": "English: Quit",
      "message": "প্রস্থান"
   },
   "popup1pScriptRulePrompt": {
      "description": "",
      "message": "১ম-দলের স্ক্রিপ্ট"
   },
   "popup3pAnyRulePrompt": {
      "description": "",
      "message": "৩য়-দল"
   },
   "popup3pFrameRulePrompt": {
      "description": "",
      "message": "৩য়-দলের ফ্রেম"
   },
   "popup3pPassiveRulePrompt": {
      "description": "",
      "message": "৩য়-দলের css/চিত্র"
   },
   "popup3pScriptRulePrompt": {
      "description": "",
      "message": "৩য়-দলের স্ক্রিপ্ট"
   },
   "popupAnyRulePrompt": {
      "description": "",
      "message": "সব"
   },
   "popupBlockedOnThisPagePrompt": {
      "description": "English: on this page",
      "message": "এই পাতায়"
   },
   "popupBlockedRequestPrompt": {
      "description": "English: requests blocked",
      "message": "অবরোধের অনুরোধ"
   },
   "popupBlockedSinceInstallPrompt": {
      "description": "English: since install",
      "message": "ইনস্টলের পর থেকে"
   },
   "popupBlockedStats": {
      "description": "Example: 15 or 13%",
      "message": "{{count}}টি বা {{percent}}%"
   },
   "popupHitDomainCount": {
      "description": "appears in popup",
      "message": "{{total}}টির মধ্যে {{count}}টি"
   },
   "popupHitDomainCountPrompt": {
      "description": "appears in popup",
      "message": "সংযুক্ত ডোমেইন"
   },
   "popupImageRulePrompt": {
      "description": "",
      "message": "চিত্র"
   },
   "popupInlineScriptRulePrompt": {
      "description": "",
      "message": "সারির স্ক্রিপ্ট"
   },
   "popupOr": {
      "description": "English: or",
      "message": "বা"
   },
   "popupPowerSwitchInfo": {
      "description": "English: Click: disable/enable Ads Killer Plus for this site.\n\nCtrl+click: disable Ads Killer Plus only on this page.",
      "message": "ক্লিক: এই সাইটের জন্য Ads Killer Plus নিষ্ক্রিয়/সক্রিয় করবে।\n\nCtrl+ক্লিক: শুধু এই পাতার জন্য Ads Killer Plus নিষ্ক্রিয় করবে।"
   },
   "popupTipDashboard": {
      "description": "English: Click to open the dashboard",
      "message": "ড্যাশবোর্ড খোলার জন্য ক্লিক করুন"
   },
   "popupTipGlobalRules": {
      "description": "Tooltip when hovering the top-most cell of the global-rules column.",
      "message": "সার্বজনীন নিয়ম: এই কলামটি সেইসব নিয়মের জন্য যা সকল সাইটের উপর প্রযোজ্য।"
   },
   "popupTipLocalRules": {
      "description": "Tooltip when hovering the top-most cell of the local-rules column.",
      "message": "অভ্যন্তরীন নিয়ম: এই কলামটি সেইসব নিয়মের জন্য যা শুধু বর্তমান সাইটে প্রয়োগ করা হবে।\nঅভ্যন্তরীন নিয়ম সার্বজনীন নিয়মকে অগ্রাহ্য করবে।"
   },
   "popupTipLog": {
      "description": "Tooltip used for the logger icon in the panel",
      "message": "ঘটনাবলী খুলুন"
   },
   "popupTipNoCosmeticFiltering": {
      "description": "Tooltip for the no-cosmetic-filtering per-site switch",
      "message": "এই সাইটের জন্য বাহ্যিক ফিল্টারিং অদলবদল করুন"
   },
   "popupTipNoLargeMedia": {
      "description": "Tooltip for the no-large-media per-site switch",
      "message": "এই সাইটের জন্য বড় মিডিয়া উপাদান অবরোধ অদলবদল করুন"
   },
   "popupTipNoPopups": {
      "description": "Tooltip for the no-popups per-site switch",
      "message": "এই সাইটের জন্য সব পপআপ প্রতিরোধ অদলবদল করুন"
   },
   "popupTipNoRemoteFonts": {
      "description": "Tooltip for the no-remote-fonts per-site switch",
      "message": "এই সাইটের রিমোট ফন্টের অবরোধ অদলবদল করুন"
   },
   "popupTipPicker": {
      "description": "English: Enter element picker mode",
      "message": "উপাদান বাছাইকারী মোডে প্রবেশ করুন"
   },
   "popupTipRevertRules": {
      "description": "Tooltip when hovering over the eraser in the dynamic filtering pane.",
      "message": "আপনার পরিবর্তনগুলি প্রত্যাবর্তন করতে ক্লিক করুন।"
   },
   "popupTipSaveRules": {
      "description": "Tooltip when hovering over the padlock in the dynamic filtering pane.",
      "message": "আপনার পরিবর্তনগুলি স্থায়ী করতে ক্লিক করুন।"
   },
   "rulesCommit": {
      "description": "This will persist temporary rules",
      "message": "কমিট"
   },
   "rulesDefaultFileName": {
      "description": "default file name to use",
      "message": "amar-ublock-dynamic-niyom_{{datetime}}.txt"
   },
   "rulesEdit": {
      "description": "Will enable manual-edit mode (textarea)",
      "message": "সম্পাদনা"
   },
   "rulesEditDiscard": {
      "description": "Will discard manually-edited content and exit manual-edit mode",
      "message": "বাতিল করুন"
   },
   "rulesEditSave": {
      "description": "Will save manually-edited content and exit manual-edit mode",
      "message": "সংরক্ষণ"
   },
   "rulesExport": {
      "description": "",
      "message": "ফাইলে রপ্তানি"
   },
   "rulesFormatHint": {
      "description": "English: dynamic rule syntax and full documentation.",
      "message": "শব্দবিন্যাসের নিয়ম: \u003Ccode>source destination type action\u003C/code> (\u003Ca href='https://github.com/gorhill/uBlock/wiki/Dynamic-filtering:-rule-syntax'>সম্পূর্ণ নথিপত্র\u003C/a>)।"
   },
   "rulesHint": {
      "description": "English: List of your dynamic filtering rules.",
      "message": "আপনার গতিশীল ফিল্টারের নিয়মের তালিকা।"
   },
   "rulesImport": {
      "description": "",
      "message": "ফাইল থেকে আমদানি..."
   },
   "rulesPageName": {
      "description": "appears as tab name in dashboard",
      "message": "আমার নিয়ম"
   },
   "rulesPermanentHeader": {
      "description": "header",
      "message": "স্থায়ী নিয়ম"
   },
   "rulesRevert": {
      "description": "This will remove all temporary rules",
      "message": "প্রত্যাবর্তন"
   },
   "rulesTemporaryHeader": {
      "description": "header",
      "message": "অস্থায়ী নিয়ম"
   },
   "settingPerSiteSwitchGroup": {
      "description": "",
      "message": "পূর্বনির্ধারিত আচরণ"
   },
   "settingPerSiteSwitchGroupSynopsis": {
      "description": "",
      "message": "এই পূর্বনির্ধারিত আচরণ প্রতি সাইট ভিত্তিতে ওভাররাইড করা যেতে পারে"
   },
   "settingsAdvancedUserPrompt": {
      "description": "",
      "message": "আমি একজন উন্নত ব্যবহারকারী (\u003Ca href='https://github.com/gorhill/uBlock/wiki/Advanced-user-features'>পড়া আবশ্যক\u003C/a>)"
   },
   "settingsAdvancedUserSettings": {
      "description": "For the tooltip of a link which gives access to advanced settings",
      "message": "উন্নত সেটিংস"
   },
   "settingsCloudStorageEnabledPrompt": {
      "description": "",
      "message": "ক্লাউড সঞ্চয়ের সমর্থন সক্রিয় করুন"
   },
   "settingsCollapseBlockedPrompt": {
      "description": "English: Hide placeholders of blocked elements",
      "message": "অবরুদ্ধ উপাদানের স্থানধারক লুকান"
   },
   "settingsColorBlindPrompt": {
      "description": "English: Color-blind friendly",
      "message": "বর্ণান্ধ বন্ধুত্বপূর্ণ"
   },
   "settingsContextMenuPrompt": {
      "description": "English: Make use of context menu where appropriate",
      "message": "উপযুক্ত স্থানে প্রাসঙ্গিক মেনু ব্যবহার করুন"
   },
   "settingsHyperlinkAuditingDisabledPrompt": {
      "description": "English: ",
      "message": "হাইপারলিঙ্ক নিরীক্ষণ/বাতিঘর নিষ্ক্রিয় করুন"
   },
   "settingsIconBadgePrompt": {
      "description": "English: Show the number of blocked requests on the icon",
      "message": "আইকনে অবরোধের অনুরোধ সংখ্যা দেখান"
   },
   "settingsLastBackupPrompt": {
      "description": "English: Last backup:",
      "message": "সর্বশেষ ব্যাকআপ:"
   },
   "settingsLastRestorePrompt": {
      "description": "English: Last restore:",
      "message": "সর্বশেষ পুনঃস্থাপন:"
   },
   "settingsNoCosmeticFilteringPrompt": {
      "description": "",
      "message": "প্রসাধন ফিল্টারিং নিষ্ক্রিয় করুন"
   },
   "settingsNoLargeMediaPrompt": {
      "description": "",
      "message": "{{input:number}} কেবির থেকে বড় মিডিয়া উপাদান অবরুদ্ধ করুন"
   },
   "settingsNoRemoteFontsPrompt": {
      "description": "",
      "message": "রিমোট ফন্ট অবরুদ্ধ করুন"
   },
   "settingsPageName": {
      "description": "appears as tab name in dashboard",
      "message": "সেটিংস"
   },
   "settingsPrefetchingDisabledPrompt": {
      "description": "English: ",
      "message": "অগ্রিম নিয়ে আসা নিষ্ক্রিয় করুন (অবরুদ্ধ নেটওয়ার্ক অনুরোধের জন্য যে কোনো সংযোগ প্রতিরোধ করতে)"
   },
   "settingsStorageUsed": {
      "description": "English: Storage used: {{}} bytes",
      "message": "সংগ্রহস্থল ব্যবহার: {{value}} বাইট"
   },
   "settingsTooltipsPrompt": {
      "description": "A checkbox in the Settings pane",
      "message": "টুলটিপ নিষ্ক্রিয় করুন"
   },
   "settingsWebRTCIPAddressHiddenPrompt": {
      "description": "English: ",
      "message": "স্থানীয় IP ঠিকানা ফাঁস থেকে WebRTC কে প্রতিরোধ করে"
   },
   "short_name": {
      "message": "Ads Killer Adblocker Plus"
   },
   "showDashboardButton": {
      "description": "Firefox/Fennec-specific: Show Dashboard",
      "message": "ড্যাশবোর্ড দেখুন"
   },
   "showNetworkLogButton": {
      "description": "Firefox/Fennec-specific: Show Logger",
      "message": "লগার দেখান"
   },
   "statsPageName": {
      "description": "Title for the logger window",
      "message": "Ads Killer Plus — ঘটনাবলী"
   },
   "subscriberConfirm": {
      "description": "English: The message seen by the user to confirm subscription to a ABP filter list",
      "message": "Ads Killer Plus: আপনার নিজস্ব ফিল্টার তালিকায় নিম্নলিখিত URL যোগ করবেন?\n\nশিরোনাম: \"{{title}}\"\nURL: {{url}}"
   },
   "whitelistApply": {
      "description": "English: Apply changes",
      "message": "পরিবর্তনগুলি প্রয়োগ"
   },
   "whitelistExport": {
      "description": "English: Export",
      "message": "রপ্তানি করুন"
   },
   "whitelistExportFilename": {
      "description": "English: my-ublock-whitelist_{{datetime}}.txt",
      "message": "amar-ublock-whitelist_{{datetime}}.txt"
   },
   "whitelistImport": {
      "description": "English: Import and append",
      "message": "আমদানি ও পরিশেষে যোগ করুন"
   },
   "whitelistPageName": {
      "description": "appears as tab name in dashboard",
      "message": "পরিচ্ছন্ন তালিকা"
   },
   "whitelistPrompt": {
      "description": "English: An overview of the content of the dashboard's Whitelist pane.",
      "message": "আপনার হোস্টের তালিকা যাদের জন্য Ads Killer Plus নিষ্ক্রিয় করা হবে। লাইন প্রতি একটি ভুক্তি। অবৈধ হোস্ট নাম নিশব্দে উপেক্ষা করা হবে।"
   }
}
