{
   "1pApplyChanges": {
      "description": "English: Apply changes",
      "message": "Değişiklikleri uygula"
   },
   "1pExport": {
      "description": "English: Export",
      "message": "Dışa aktar"
   },
   "1pExportFilename": {
      "description": "English: my-ublock-static-filters_{{datetime}}.txt",
      "message": "ublock-statik-süzgeçlerim_{{datetime}}.txt"
   },
   "1pFormatHint": {
      "description": "English: One filter per line. A filter can be a plain hostname, or an Adblock Plus-compatible filter. Lines prefixed with &lsquo;!&rsquo; will be ignored.",
      "message": "Her satırda bir süzgeç. Süzgeç bir alan adı veya Adblock Plus uyumlu bir süzgeç olabilir. &lsquo;!&rsquo; ile başlayan satırlar yok sayılır."
   },
   "1pImport": {
      "description": "English: Import and append",
      "message": "İçe aktar ve sonuna ekle"
   },
   "1pPageName": {
      "description": "appears as tab name in dashboard",
      "message": "Süzgeçlerim"
   },
   "3pApplyChanges": {
      "description": "English: Apply changes",
      "message": "Değişiklikleri uygula"
   },
   "3pAutoUpdatePrompt1": {
      "description": "A checkbox in the _3rd-party filters_ pane",
      "message": "Süzgeç listelerini otomatik güncelle."
   },
   "3pExternalListNew": {
      "description": "English: new version available",
      "message": "yeni sürüm mevcut"
   },
   "3pExternalListObsolete": {
      "description": "a filter list is 'out of date' (possibly needs to be updated)",
      "message": "eski"
   },
   "3pExternalListPurge": {
      "description": "English: purge cache",
      "message": "önbelleği temizle"
   },
   "3pExternalListsApply": {
      "description": "English: Parse",
      "message": "Uygula"
   },
   "3pExternalListsHint": {
      "description": "English: One URL per line. Lines prefixed with &lsquo;!&rsquo; will be ignored. Invalid URLs will be silently ignored.",
      "message": "Her satırda bir URL. &lsquo;!&rsquo; ile başlayan satırlar göz ardı edilir. Geçersiz URL'ler sessizce yoksayılır."
   },
   "3pGroupAds": {
      "description": "English: Ads",
      "message": "Reklamlar"
   },
   "3pGroupCustom": {
      "description": "English: Custom",
      "message": "Özel"
   },
   "3pGroupMalware": {
      "description": "English: Malware domains",
      "message": "Zararlı alan adları"
   },
   "3pGroupMultipurpose": {
      "description": "English: Multipurpose",
      "message": "Çok-amaçlı"
   },
   "3pGroupPrivacy": {
      "description": "English: Privacy",
      "message": "Gizlilik"
   },
   "3pGroupRegions": {
      "description": "English: Regions, languages",
      "message": "Bölgeler, diller"
   },
   "3pGroupSocial": {
      "description": "English: Social",
      "message": "Sosyal"
   },
   "3pIgnoreGenericCosmeticFilters": {
      "description": "This will cause uBO to ignore all generic cosmetic filters.",
      "message": "Genel kozmetik süzgeçleri yoksay."
   },
   "3pIgnoreGenericCosmeticFiltersInfo": {
      "description": "Describes the purpose of the 'Ignore generic cosmetic filters' feature.",
      "message": "\u003Cp>Genel kozmetik süzgeçler tüm web sayfalarına uygulanan kozmetik süzgeçlerdir.\u003Cp>Ads Killer Plus tarafından verimli bir şekilde işlenmesine rağmen genel kozmetik süzgeçler bazı web sayfalarında ölçülebilir bellek ve CPU ek yüküne neden olabilir, özellikle büyük ve uzun süreli olanlar.\u003Cp>Bu seçeneğin etkinleştirmesi, web sayfalarına eklenen genel kozmetik süzgeçlerin işlenmesinden kaynaklı bellek ve CPU ek yükünü ortadan kaldıracaktır ve ek olarak Ads Killer Plus'un kendi bellek izini de azaltacaktır.\u003Cp>Daha az güçlü cihazlarda bu seçeneğin etkinleştirilmesi tavsiye edilir."
   },
   "3pLastUpdate": {
      "description": "English: Last update: {{ago}}, where 'ago' will be replaced with something like '2 days ago'",
      "message": "Son güncelleme: {{ago}}"
   },
   "3pListsOfBlockedHostsHeader": {
      "description": "English: Lists of blocked hosts",
      "message": "Engellenmiş alan adlarının listesi"
   },
   "3pListsOfBlockedHostsPerListStats": {
      "description": "Appears aside each filter list in the _3rd-party filters_ pane",
      "message": "{{total}} taneden {{used}} adedi kullanıldı"
   },
   "3pListsOfBlockedHostsPrompt": {
      "description": "Appears at the top of the _3rd-party filters_ pane",
      "message": "{{netFilterCount}} ağ süzgeci + {{cosmeticFilterCount}} kozmetik süzgeç:"
   },
   "3pPageName": {
      "description": "appears as tab name in dashboard",
      "message": "3. taraf süzgeçler"
   },
   "3pParseAllABPHideFiltersInfo": {
      "description": "Describes the purpose of the 'Parse and enforce cosmetic filters' feature.",
      "message": "\u003Cp>Bu seçenek \u003Ca href=\"https://adblockplus.org/en/faq_internal#elemhide\"> Adblock Plus-uyumlu &ldquo;öğe gizleme&rdquo; süzgeçlerinin\u003C/a> işlenmesini ve uygulanmasını sağlar. Bu süzgeçler aslında kozmetiktir, bir web sayfasında görsel rahatsızlık yaratan ve ağ isteği-tabanlı süzme motoru tarafından engellenemeyecek olan öğelerin gizlenmesine yarar.\u003C/p>\u003Cp>Bu özelliği etkinleştirmek  Ads Killer Plus'in bellek kullanımını artırır.\u003C/p>"
   },
   "3pParseAllABPHideFiltersPrompt1": {
      "description": "English: Parse and enforce Adblock+ element hiding filters.",
      "message": "Kozmetik süzgeçleri incele ve uygula."
   },
   "3pPurgeAll": {
      "description": "A button in the in the _3rd-party filters_ pane",
      "message": "Tüm önbelleği temizle"
   },
   "3pUpdateNow": {
      "description": "A button in the in the _3rd-party filters_ pane",
      "message": "Şimdi güncelle"
   },
   "aboutBackupDataButton": {
      "description": "Text for button to create a backup of all settings",
      "message": "Dosyaya yedekle"
   },
   "aboutBackupFilename": {
      "description": "English: my-ublock-backup_{{datetime}}.txt",
      "message": "ublock-yedeğim_{{datetime}}.txt"
   },
   "aboutChangelog": {
      "description": "English: Change log",
      "message": "Değişiklikler"
   },
   "aboutCode": {
      "description": "English: Source code (GPLv3)",
      "message": "Kaynak kodu (GPLv3)"
   },
   "aboutContributors": {
      "description": "English: Contributors",
      "message": "Katkıda bulunanlar"
   },
   "aboutPageName": {
      "description": "appears as tab name in dashboard",
      "message": "Hakkında"
   },
   "aboutResetDataButton": {
      "description": "English: Reset to default settings...",
      "message": "Varsayılan ayarlara sıfırla..."
   },
   "aboutResetDataConfirm": {
      "description": "Message asking user to confirm reset",
      "message": "Tüm ayarlarınızı silinecek, ve Ads Killer Plus yeniden başlayacak.\n\nAds Killer Plus fabrika ayarlarına geri dönsün mü?"
   },
   "aboutRestoreDataButton": {
      "description": "English: Restore from file...",
      "message": "Dosyadan geri yükle..."
   },
   "aboutRestoreDataConfirm": {
      "description": "Message asking user to confirm restore",
      "message": "Tüm ayarlarınız {{time}} tarihinde yedeklenmiş veriler kullanarak değiştirilecek ve Ads Killer Plus yeniden başlayacak. \n\nYedeklenmiş verileriniz kullanılarak mevcut tüm ayarlarınız değiştirilsin mi?"
   },
   "aboutRestoreDataError": {
      "description": "Message to display when an error occurred during restore",
      "message": "Veri okunamıyor ya da geçersiz"
   },
   "aboutSupport": {
      "description": "A link for where to get support",
      "message": "Destek"
   },
   "aboutWiki": {
      "description": "English: project' wiki on Github",
      "message": "Viki"
   },
   "advancedSettingsPageName": {
      "description": "Title for the advanced settings page",
      "message": "Gelişmiş ayarlar"
   },
   "advancedSettingsWarning": {
      "description": "A warning to users at the top of 'Advanced settings' page",
      "message": "Uyarı! Bu ayarları değiştirme sorumluluğu size aittir."
   },
   "cloudDeviceNamePrompt": {
      "description": "used as a prompt for the user to provide a custom device name",
      "message": "Bu cihazın adı:"
   },
   "cloudNoData": {
      "description": "",
      "message": "...\n..."
   },
   "cloudPull": {
      "description": "tooltip",
      "message": "Bulut depodan içe aktar"
   },
   "cloudPullAndMerge": {
      "description": "tooltip",
      "message": "Bulut depodan içe aktar ve şu anki ayarlarla birleştir"
   },
   "cloudPush": {
      "description": "tooltip",
      "message": "Bulut depoya aktar"
   },
   "contextMenuTemporarilyAllowLargeMediaElements": {
      "description": "A context menu entry, present when large media elements have been blocked on the current site",
      "message": "Geçici olarak büyük medya öğelerine izin ver"
   },
   "dashboardName": {
      "description": "English: Ads Killer Plus — Dashboard",
      "message": "Ads Killer Plus — Kontrol paneli"
   },
   "description": {
      "message": "Tüm web sitelerindeki reklamları kaldırır!"
   },
   "docblockedBack": {
      "description": "English: Go back",
      "message": "Geri dön"
   },
   "docblockedClose": {
      "description": "English: Close this window",
      "message": "Bu pencereyi kapat"
   },
   "docblockedDisablePermanent": {
      "description": "English: Permanently",
      "message": "Kalıcı olarak"
   },
   "docblockedDisableTemporary": {
      "description": "English: Temporarily",
      "message": "Geçici olarak"
   },
   "docblockedFoundIn": {
      "description": "English: List of filter list names follows",
      "message": "Bulunduğu liste:"
   },
   "docblockedNoParamsPrompt": {
      "description": "label to be used for the parameter-less URL: https://cloud.githubusercontent.com/assets/585534/9832014/bfb1b8f0-593b-11e5-8a27-fba472a5529a.png",
      "message": "parametresiz"
   },
   "docblockedProceed": {
      "description": "English: Disable strict blocking for {{hostname}} ...",
      "message": "{{hostname}} için katı engellemeyi devre dışı bırak"
   },
   "docblockedPrompt1": {
      "description": "English: Ads Killer Plus has prevented the following page from loading:",
      "message": "Ads Killer Plus aşağıdaki sayfanın yüklenmesini engelledi:"
   },
   "docblockedPrompt2": {
      "description": "English: Because of the following filter",
      "message": "Aşağıdaki süzgeçten dolayı"
   },
   "dummy": {
      "description": "so we dont need to deal with comma for last entry",
      "message": "Bu girdi en sonda olmalıdır"
   },
   "elapsedManyDaysAgo": {
      "description": "English: {{value}} days ago",
      "message": "{{value}} gün önce"
   },
   "elapsedManyHoursAgo": {
      "description": "English: {{value}} hours ago",
      "message": "{{value}} saat önce"
   },
   "elapsedManyMinutesAgo": {
      "description": "English: {{value}} minutes ago",
      "message": "{{value}} dakika önce"
   },
   "elapsedOneDayAgo": {
      "description": "English: a day ago",
      "message": "1 gün önce"
   },
   "elapsedOneHourAgo": {
      "description": "English: an hour ago",
      "message": "1 saat önce"
   },
   "elapsedOneMinuteAgo": {
      "description": "English: a minute ago",
      "message": "1 dakika önce"
   },
   "errorCantConnectTo": {
      "description": "English: Network error: unable to connect to {{url}}",
      "message": "{{url}} adresine bağlanılamıyor"
   },
   "fennecMenuItemBlockingOff": {
      "description": "Firefox-specific: appears as 'Ads Killer Plus (off)'",
      "message": "kapalı"
   },
   "genericApplyChanges": {
      "description": "for generic 'Apply changes' buttons",
      "message": "Değişiklikleri uygula"
   },
   "genericBytes": {
      "description": "",
      "message": "byte"
   },
   "genericRevert": {
      "description": "for generic 'Revert' buttons",
      "message": "Geri al"
   },
   "genericSubmit": {
      "description": "for generic 'Submit' buttons",
      "message": "Gönder"
   },
   "logAll": {
      "description": "Appears in the logger's tab selector",
      "message": "Tümü"
   },
   "logBehindTheScene": {
      "description": "Pretty name for behind-the-scene network requests",
      "message": "Sahne arkası"
   },
   "logFilterPrompt": {
      "description": "English: filter log entries",
      "message": "günlük kayıtlarını süz"
   },
   "logMaxEntriesTip": {
      "description": "Tooltip informaing that the input field is to set the maximum number of entries in the log",
      "message": "Maksimum günlük kayıt sayısı"
   },
   "logRequestsHeaderDomain": {
      "description": "English: Domain",
      "message": "Alan adı"
   },
   "logRequestsHeaderFilter": {
      "description": "English: Filter",
      "message": "Süzgeç"
   },
   "logRequestsHeaderType": {
      "description": "English: Type",
      "message": "Tür"
   },
   "logRequestsHeaderURL": {
      "description": "English: URL",
      "message": "URL"
   },
   "loggerStaticFilteringFinderSentence1": {
      "description": "Below this sentence, the filter lists in which the filter was found",
      "message": "Statik süzgecin {{filter}} bulunduğu listeler:"
   },
   "loggerStaticFilteringHeader": {
      "description": "Small header to identify the static filtering section",
      "message": "Statik süzme"
   },
   "loggerStaticFilteringSentence": {
      "description": "Used in the static filtering wizard",
      "message": "Bu adres ile eşleşen {{url}} {{br}}ve kaynağı {{origin}} olan, {{type}} ağ isteklerini {{br}}eşleşen istisna süzgeci {{importance}} {{action}}."
   },
   "loggerStaticFilteringSentencePartAllow": {
      "description": "Used in the static filtering wizard",
      "message": "İzin ver"
   },
   "loggerStaticFilteringSentencePartAnyOrigin": {
      "description": "Used in the static filtering wizard",
      "message": "herhangi bir yer"
   },
   "loggerStaticFilteringSentencePartAnyType": {
      "description": "Used in the static filtering wizard",
      "message": "herhangi bir türdeki"
   },
   "loggerStaticFilteringSentencePartBlock": {
      "description": "Used in the static filtering wizard",
      "message": "Engelle"
   },
   "loggerStaticFilteringSentencePartImportant": {
      "description": "Used in the static filtering wizard",
      "message": "olsa da"
   },
   "loggerStaticFilteringSentencePartNotImportant": {
      "description": "Used in the static filtering wizard",
      "message": "olmasa da"
   },
   "loggerStaticFilteringSentencePartOrigin": {
      "description": "Used in the static filtering wizard",
      "message": "“{{origin}}” adresi"
   },
   "loggerStaticFilteringSentencePartType": {
      "description": "Used in the static filtering wizard",
      "message": "“{{type}}” türündeki"
   },
   "loggerURLFilteringContextLabel": {
      "description": "Label for the context selector",
      "message": "Bağlam:"
   },
   "loggerURLFilteringHeader": {
      "description": "Small header to identify the dynamic URL filtering section",
      "message": "Dinamik URL süzme"
   },
   "loggerURLFilteringTypeLabel": {
      "description": "Label for the type selector",
      "message": "Tür:"
   },
   "name": {
      "message": "Ads Killer Adblocker Plus"
   },
   "pickerContextMenuEntry": {
      "description": "English: Block element",
      "message": "Ögeyi engelle"
   },
   "pickerCosmeticFilters": {
      "description": "English: Cosmetic filters",
      "message": "Kozmetik süzgeçler"
   },
   "pickerCosmeticFiltersHint": {
      "description": "English: Click, Ctrl-click",
      "message": "Tıkla, Ctrl-tıkla"
   },
   "pickerCreate": {
      "description": "English: Create",
      "message": "Oluştur"
   },
   "pickerNetFilters": {
      "description": "English: header for a type of filter in the element picker dialog",
      "message": "Ağ süzgeçleri"
   },
   "pickerPick": {
      "description": "English: Pick",
      "message": "Seç"
   },
   "pickerPreview": {
      "description": "Element picker preview mode: will cause the elements matching the current filter to be removed from the page",
      "message": "Ön İzleme"
   },
   "pickerQuit": {
      "description": "English: Quit",
      "message": "Çık"
   },
   "popup1pScriptRulePrompt": {
      "description": "",
      "message": "1. taraf betikler"
   },
   "popup3pAnyRulePrompt": {
      "description": "",
      "message": "3. taraf"
   },
   "popup3pFrameRulePrompt": {
      "description": "",
      "message": "3. taraf çerçeveler"
   },
   "popup3pPassiveRulePrompt": {
      "description": "",
      "message": "3. taraf css/resim"
   },
   "popup3pScriptRulePrompt": {
      "description": "",
      "message": "3. taraf betikler"
   },
   "popupAnyRulePrompt": {
      "description": "",
      "message": "tümü"
   },
   "popupBlockedOnThisPagePrompt": {
      "description": "English: on this page",
      "message": "bu sayfada"
   },
   "popupBlockedRequestPrompt": {
      "description": "English: requests blocked",
      "message": "engellenen istekler"
   },
   "popupBlockedSinceInstallPrompt": {
      "description": "English: since install",
      "message": "yüklendiğinden beri"
   },
   "popupBlockedStats": {
      "description": "Example: 15 or 13%",
      "message": "{{count}} veya %{{percent}}"
   },
   "popupHitDomainCount": {
      "description": "appears in popup",
      "message": "{{total}} taneden {{count}}"
   },
   "popupHitDomainCountPrompt": {
      "description": "appears in popup",
      "message": "bağlanılan adresler"
   },
   "popupImageRulePrompt": {
      "description": "",
      "message": "resimler"
   },
   "popupInlineScriptRulePrompt": {
      "description": "",
      "message": "satır içi betikleri"
   },
   "popupOr": {
      "description": "English: or",
      "message": "ya da"
   },
   "popupPowerSwitchInfo": {
      "description": "English: Click: disable/enable Ads Killer Plus for this site.\n\nCtrl+click: disable Ads Killer Plus only on this page.",
      "message": "Tıklama: Ads Killer Plus'i bu site için devre dışı bırak/etkinleştir.\n\nCtrl+tıklama: Ads Killer Plus'i sadece bu sayfa için devre dışı bırak."
   },
   "popupTipDashboard": {
      "description": "English: Click to open the dashboard",
      "message": "Kontrol panelini açmak için tıklayın"
   },
   "popupTipGlobalRules": {
      "description": "Tooltip when hovering the top-most cell of the global-rules column.",
      "message": "Genel kurallar: bu sütun tüm sitelere uygulanan kurallar içindir."
   },
   "popupTipLocalRules": {
      "description": "Tooltip when hovering the top-most cell of the local-rules column.",
      "message": "Yerel kurallar: bu sütun yalnızca geçerli siteye uygulanan kurallar içindir.\nYerel kurallar genel kuralları geçersiz kılar."
   },
   "popupTipLog": {
      "description": "Tooltip used for the logger icon in the panel",
      "message": "Günlükçüyü açar"
   },
   "popupTipNoCosmeticFiltering": {
      "description": "Tooltip for the no-cosmetic-filtering per-site switch",
      "message": "Bu site için kozmetik süzmeyi aç/kapa"
   },
   "popupTipNoLargeMedia": {
      "description": "Tooltip for the no-large-media per-site switch",
      "message": "Bu site için büyük medya öğelerini engellemeyi aç/kapa"
   },
   "popupTipNoPopups": {
      "description": "Tooltip for the no-popups per-site switch",
      "message": "Bu site için açılır pencere engellemeyi aç/kapa"
   },
   "popupTipNoRemoteFonts": {
      "description": "Tooltip for the no-remote-fonts per-site switch",
      "message": "Bu site için uzak yazıtiplerini engellemeyi aç/kapa"
   },
   "popupTipPicker": {
      "description": "English: Enter element picker mode",
      "message": "Öğe seçme moduna gir"
   },
   "popupTipRevertRules": {
      "description": "Tooltip when hovering over the eraser in the dynamic filtering pane.",
      "message": "Değişikliklerinizi geri almak için tıklayın."
   },
   "popupTipSaveRules": {
      "description": "Tooltip when hovering over the padlock in the dynamic filtering pane.",
      "message": "Değişikliklerinizi kalıcı kılmak için tıklayın."
   },
   "rulesCommit": {
      "description": "This will persist temporary rules",
      "message": "İşle"
   },
   "rulesDefaultFileName": {
      "description": "default file name to use",
      "message": "ublock-dinamik-kurallarım_{{datetime}}.txt"
   },
   "rulesEdit": {
      "description": "Will enable manual-edit mode (textarea)",
      "message": "Düzenle"
   },
   "rulesEditDiscard": {
      "description": "Will discard manually-edited content and exit manual-edit mode",
      "message": "İptal et"
   },
   "rulesEditSave": {
      "description": "Will save manually-edited content and exit manual-edit mode",
      "message": "Kaydet"
   },
   "rulesExport": {
      "description": "",
      "message": "Dosyaya aktar"
   },
   "rulesFormatHint": {
      "description": "English: dynamic rule syntax and full documentation.",
      "message": "Kural sözdizimi: \u003Ccode>kaynak hedefi türü işlemi\u003C/code> (\u003Ca href='https://github.com/gorhill/uBlock/wiki/Dynamic-filtering:-rule-syntax'>bütün belgeler\u003C/a>)."
   },
   "rulesHint": {
      "description": "English: List of your dynamic filtering rules.",
      "message": "Dinamik süzme kurallarınızın listesi."
   },
   "rulesImport": {
      "description": "",
      "message": "Dosyadan içe aktar..."
   },
   "rulesPageName": {
      "description": "appears as tab name in dashboard",
      "message": "Kurallarım"
   },
   "rulesPermanentHeader": {
      "description": "header",
      "message": "Kalıcı kurallar"
   },
   "rulesRevert": {
      "description": "This will remove all temporary rules",
      "message": "Geri al"
   },
   "rulesTemporaryHeader": {
      "description": "header",
      "message": "Geçici kurallar"
   },
   "settingPerSiteSwitchGroup": {
      "description": "",
      "message": "Varsayılan davranış"
   },
   "settingPerSiteSwitchGroupSynopsis": {
      "description": "",
      "message": "Bu varsayılan davranışlar site bazında geçersiz kılınabilir"
   },
   "settingsAdvancedUserPrompt": {
      "description": "",
      "message": "Deneyimli kullanıcıyım (\u003Ca href='https://github.com/gorhill/uBlock/wiki/Advanced-user-features'>Okunması gerekir\u003C/a>)"
   },
   "settingsAdvancedUserSettings": {
      "description": "For the tooltip of a link which gives access to advanced settings",
      "message": "gelişmiş ayarlar"
   },
   "settingsCloudStorageEnabledPrompt": {
      "description": "",
      "message": "Bulut depo desteğini etkinleştir"
   },
   "settingsCollapseBlockedPrompt": {
      "description": "English: Hide placeholders of blocked elements",
      "message": "Engellenen reklamların yerlerini gizle"
   },
   "settingsColorBlindPrompt": {
      "description": "English: Color-blind friendly",
      "message": "Renk körü dostu"
   },
   "settingsContextMenuPrompt": {
      "description": "English: Make use of context menu where appropriate",
      "message": "Uygun olduğunda içerik menüsünü kullan"
   },
   "settingsHyperlinkAuditingDisabledPrompt": {
      "description": "English: ",
      "message": "Köprü denetimini devre dışı bırak"
   },
   "settingsIconBadgePrompt": {
      "description": "English: Show the number of blocked requests on the icon",
      "message": "Engellenmiş reklam sayısını simge üzerinde göster"
   },
   "settingsLastBackupPrompt": {
      "description": "English: Last backup:",
      "message": "Son yedekleme:"
   },
   "settingsLastRestorePrompt": {
      "description": "English: Last restore:",
      "message": "Son geri yükleme:"
   },
   "settingsNoCosmeticFilteringPrompt": {
      "description": "",
      "message": "Kozmetik süzgeçleri devre dışı bırak"
   },
   "settingsNoLargeMediaPrompt": {
      "description": "",
      "message": "Belirlenenden büyük medya öğelerini engelle {{input:number}} kB"
   },
   "settingsNoRemoteFontsPrompt": {
      "description": "",
      "message": "Uzak yazıtiplerini engelle"
   },
   "settingsPageName": {
      "description": "appears as tab name in dashboard",
      "message": "Ayarlar"
   },
   "settingsPrefetchingDisabledPrompt": {
      "description": "English: ",
      "message": "Kaynak ön getirimini devre dışı bırak (engellenmiş ağ isteklerine herhangi bir bağlantı kurulmasını engellemek için)"
   },
   "settingsStorageUsed": {
      "description": "English: Storage used: {{}} bytes",
      "message": "Kullanılan Alan: {{value}} bayt"
   },
   "settingsTooltipsPrompt": {
      "description": "A checkbox in the Settings pane",
      "message": "İpuçlarını kapat"
   },
   "settingsWebRTCIPAddressHiddenPrompt": {
      "description": "English: ",
      "message": "WebRTC'nin yerel IP adreslerini sızdırmasını engelle"
   },
   "short_name": {
      "message": "Ads Killer Adblocker Plus"
   },
   "showDashboardButton": {
      "description": "Firefox/Fennec-specific: Show Dashboard",
      "message": "Kontrol Panelini Göster"
   },
   "showNetworkLogButton": {
      "description": "Firefox/Fennec-specific: Show Logger",
      "message": "Günlükçüyü Göster"
   },
   "statsPageName": {
      "description": "Title for the logger window",
      "message": "Ads Killer Plus — Günlükçü"
   },
   "subscriberConfirm": {
      "description": "English: The message seen by the user to confirm subscription to a ABP filter list",
      "message": "Ads Killer Plus: Aşağıdaki URL, özel süzgeç listenize eklensin mi?\n\nBaşlık: \"{{title}}\"\nURL: {{url}}"
   },
   "whitelistApply": {
      "description": "English: Apply changes",
      "message": "Değişiklikleri uygula"
   },
   "whitelistExport": {
      "description": "English: Export",
      "message": "Dışa aktar"
   },
   "whitelistExportFilename": {
      "description": "English: my-ublock-whitelist_{{datetime}}.txt",
      "message": "ublock-beyazlistem_{{datetime}}.txt"
   },
   "whitelistImport": {
      "description": "English: Import and append",
      "message": "İçe aktar ve sonuna ekle"
   },
   "whitelistPageName": {
      "description": "appears as tab name in dashboard",
      "message": "Beyaz liste"
   },
   "whitelistPrompt": {
      "description": "English: An overview of the content of the dashboard's Whitelist pane.",
      "message": "Hangi alan adları için Ads Killer Plus'in devre dışı olacağını belirten listeniz. Satır başına bir girdi. Geçersiz alan adları sessizce yok sayılır."
   }
}
