{
   "1pApplyChanges": {
      "description": "English: Apply changes",
      "message": "変更を適用"
   },
   "1pExport": {
      "description": "English: Export",
      "message": "エクスポート"
   },
   "1pExportFilename": {
      "description": "English: my-ublock-static-filters_{{datetime}}.txt",
      "message": "my-ublock-static-filters_{{datetime}}.txt"
   },
   "1pFormatHint": {
      "description": "English: One filter per line. A filter can be a plain hostname, or an Adblock Plus-compatible filter. Lines prefixed with &lsquo;!&rsquo; will be ignored.",
      "message": "1行につき1つのフィルターです。フィルターはただのホストネームでもAdblock Plus適合のフィルターでも構いません。&lsquo;!&rsquo;ですでに固定されている行は無視されます。"
   },
   "1pImport": {
      "description": "English: Import and append",
      "message": "インポートと追加"
   },
   "1pPageName": {
      "description": "appears as tab name in dashboard",
      "message": "Myフィルター"
   },
   "3pApplyChanges": {
      "description": "English: Apply changes",
      "message": "適用"
   },
   "3pAutoUpdatePrompt1": {
      "description": "A checkbox in the _3rd-party filters_ pane",
      "message": "フィルターリストを自動更新する"
   },
   "3pExternalListNew": {
      "description": "English: new version available",
      "message": "新しいバージョンが使用可能です"
   },
   "3pExternalListObsolete": {
      "description": "a filter list is 'out of date' (possibly needs to be updated)",
      "message": "古いバージョンです"
   },
   "3pExternalListPurge": {
      "description": "English: purge cache",
      "message": "キャッシュを削除"
   },
   "3pExternalListsApply": {
      "description": "English: Parse",
      "message": "解析"
   },
   "3pExternalListsHint": {
      "description": "English: One URL per line. Lines prefixed with &lsquo;!&rsquo; will be ignored. Invalid URLs will be silently ignored.",
      "message": "URL1つにつき1行です。&lsquo;!&rsquo; が先頭にある行は無視されます。無効なURLもそのまま無視されます。"
   },
   "3pGroupAds": {
      "description": "English: Ads",
      "message": "広告"
   },
   "3pGroupCustom": {
      "description": "English: Custom",
      "message": "カスタム"
   },
   "3pGroupMalware": {
      "description": "English: Malware domains",
      "message": "ウイルス"
   },
   "3pGroupMultipurpose": {
      "description": "English: Multipurpose",
      "message": "多目的"
   },
   "3pGroupPrivacy": {
      "description": "English: Privacy",
      "message": "プライバシー"
   },
   "3pGroupRegions": {
      "description": "English: Regions, languages",
      "message": "地域、言語"
   },
   "3pGroupSocial": {
      "description": "English: Social",
      "message": "ソーシャル"
   },
   "3pIgnoreGenericCosmeticFilters": {
      "description": "This will cause uBO to ignore all generic cosmetic filters.",
      "message": "要素隠蔽フィルターを無視する"
   },
   "3pIgnoreGenericCosmeticFiltersInfo": {
      "description": "Describes the purpose of the 'Ignore generic cosmetic filters' feature.",
      "message": "\u003Cp>要素隠蔽フィルターは、ほぼすべてのウェブサイトに適用することができるフィルターです。\u003Cp>これはAds Killer Plusによって効率的に処理されますが、特に大規模で長期運営されている一部のウェブページ上ではメモリやCPUの処理に時間がかかる可能性があります。\u003Cp>このオプションを有効にすると、要素隠蔽フィルターの処理結果としてウェブページに追加されたメモリやCPUの処理時間を減らし、Ads Killer Plus自体のメモリ使用量を軽減できます。\u003Cp>低スペックの環境では、このオプションを有効にすることを推奨します。"
   },
   "3pLastUpdate": {
      "description": "English: Last update: {{ago}}, where 'ago' will be replaced with something like '2 days ago'",
      "message": "最終更新: {{ago}}"
   },
   "3pListsOfBlockedHostsHeader": {
      "description": "English: Lists of blocked hosts",
      "message": "ブロックされたホストの一覧表示"
   },
   "3pListsOfBlockedHostsPerListStats": {
      "description": "Appears aside each filter list in the _3rd-party filters_ pane",
      "message": "{{total}}個中{{used}}使用"
   },
   "3pListsOfBlockedHostsPrompt": {
      "description": "Appears at the top of the _3rd-party filters_ pane",
      "message": "{{netFilterCount}} ネットワークフィルター＋{{cosmeticFilterCount}} 要素隠蔽フィルター："
   },
   "3pPageName": {
      "description": "appears as tab name in dashboard",
      "message": "外部フィルター"
   },
   "3pParseAllABPHideFiltersInfo": {
      "description": "Describes the purpose of the 'Parse and enforce cosmetic filters' feature.",
      "message": "\u003Cp>このオプションは\u003Ca href=\"https://adblockplus.org/en/faq_internal#elemhide\">Adblock Plus適合の&ldquo;要素隠蔽&rdquo;フィルター\u003C/a>の解析と施行を有効にします。これらのフィルターは表面的で、ネットリクエストベースのフィルタリングエンジンでブロックできない視覚的に迷惑な要素をウェブページ上で隠す物です。\u003C/p>\u003Cp>この機能を有効にするとAds Killer Plusの使用メモリーを増やします。\u003C/p>"
   },
   "3pParseAllABPHideFiltersPrompt1": {
      "description": "English: Parse and enforce Adblock+ element hiding filters.",
      "message": "要素隠蔽フィルターを解析、施行する"
   },
   "3pPurgeAll": {
      "description": "A button in the in the _3rd-party filters_ pane",
      "message": "全キャッシュを削除"
   },
   "3pUpdateNow": {
      "description": "A button in the in the _3rd-party filters_ pane",
      "message": "今すぐ更新"
   },
   "aboutBackupDataButton": {
      "description": "Text for button to create a backup of all settings",
      "message": "ファイルにバックアップ..."
   },
   "aboutBackupFilename": {
      "description": "English: my-ublock-backup_{{datetime}}.txt",
      "message": "my-ublock-backup_{{datetime}}.txt"
   },
   "aboutChangelog": {
      "description": "English: Change log",
      "message": "バージョン更新履歴 (Change log)"
   },
   "aboutCode": {
      "description": "English: Source code (GPLv3)",
      "message": "ソースコード (GPLバージョン3)"
   },
   "aboutContributors": {
      "description": "English: Contributors",
      "message": "貢献者達"
   },
   "aboutPageName": {
      "description": "appears as tab name in dashboard",
      "message": "このプロジェクトについて"
   },
   "aboutResetDataButton": {
      "description": "English: Reset to default settings...",
      "message": "初期設定にリセット"
   },
   "aboutResetDataConfirm": {
      "description": "Message asking user to confirm reset",
      "message": "全ての設定が消去された後、Ads Killer Plusが再起動します。\n\n初期設定にリセットしますか？"
   },
   "aboutRestoreDataButton": {
      "description": "English: Restore from file...",
      "message": "ファイルから復元..."
   },
   "aboutRestoreDataConfirm": {
      "description": "Message asking user to confirm restore",
      "message": "{{time}}のバックアップデータを使用して全ての設定を上書きした後、Ads Killer Plusが再起動します。\n\nバックアップデータを使用して既存の全ての設定の上書きしますか？"
   },
   "aboutRestoreDataError": {
      "description": "Message to display when an error occurred during restore",
      "message": "データが無効、または読み込みができませんでした"
   },
   "aboutSupport": {
      "description": "A link for where to get support",
      "message": "サポート"
   },
   "aboutWiki": {
      "description": "English: project' wiki on Github",
      "message": "Wiki"
   },
   "advancedSettingsPageName": {
      "description": "Title for the advanced settings page",
      "message": "詳細設定"
   },
   "advancedSettingsWarning": {
      "description": "A warning to users at the top of 'Advanced settings' page",
      "message": "詳細設定での変更は、細心の注意を払って行ってください。"
   },
   "cloudDeviceNamePrompt": {
      "description": "used as a prompt for the user to provide a custom device name",
      "message": "このデバイスの名前:"
   },
   "cloudNoData": {
      "description": "",
      "message": "...\n..."
   },
   "cloudPull": {
      "description": "tooltip",
      "message": "クラウドストレージからインポート"
   },
   "cloudPullAndMerge": {
      "description": "tooltip",
      "message": "クラウドストレージからインポートし、現在の設定と合併させます"
   },
   "cloudPush": {
      "description": "tooltip",
      "message": "クラウドストレージにエクスポート"
   },
   "contextMenuTemporarilyAllowLargeMediaElements": {
      "description": "A context menu entry, present when large media elements have been blocked on the current site",
      "message": "一時的に大部分のメディア要素を許可"
   },
   "dashboardName": {
      "description": "English: Ads Killer Plus — Dashboard",
      "message": "Ads Killer Plus — ダッシュボード"
   },
   "description": {
      "message": "すべてのウェブサイトから広告を削除します。"
   },
   "docblockedBack": {
      "description": "English: Go back",
      "message": "戻る"
   },
   "docblockedClose": {
      "description": "English: Close this window",
      "message": "このウィンドウを閉じる"
   },
   "docblockedDisablePermanent": {
      "description": "English: Permanently",
      "message": "恒久的"
   },
   "docblockedDisableTemporary": {
      "description": "English: Temporarily",
      "message": "一時的"
   },
   "docblockedFoundIn": {
      "description": "English: List of filter list names follows",
      "message": "次のフィルターで見つかりました:"
   },
   "docblockedNoParamsPrompt": {
      "description": "label to be used for the parameter-less URL: https://cloud.githubusercontent.com/assets/585534/9832014/bfb1b8f0-593b-11e5-8a27-fba472a5529a.png",
      "message": "パラメーター未指定"
   },
   "docblockedProceed": {
      "description": "English: Disable strict blocking for {{hostname}} ...",
      "message": "{{hostname}}の厳格なブロックを無効にする"
   },
   "docblockedPrompt1": {
      "description": "English: Ads Killer Plus has prevented the following page from loading:",
      "message": "Ads Killer Plusは、以下のページの読み込みを防いでいます:"
   },
   "docblockedPrompt2": {
      "description": "English: Because of the following filter",
      "message": "以下のフィルターによる"
   },
   "dummy": {
      "description": "so we dont need to deal with comma for last entry",
      "message": "これは最後のエントリである必要があります"
   },
   "elapsedManyDaysAgo": {
      "description": "English: {{value}} days ago",
      "message": "{{value}} 日前"
   },
   "elapsedManyHoursAgo": {
      "description": "English: {{value}} hours ago",
      "message": "{{value}} 時間前"
   },
   "elapsedManyMinutesAgo": {
      "description": "English: {{value}} minutes ago",
      "message": "{{value}} 分前"
   },
   "elapsedOneDayAgo": {
      "description": "English: a day ago",
      "message": "1日前"
   },
   "elapsedOneHourAgo": {
      "description": "English: an hour ago",
      "message": "1時間前"
   },
   "elapsedOneMinuteAgo": {
      "description": "English: a minute ago",
      "message": "1分前"
   },
   "errorCantConnectTo": {
      "description": "English: Network error: unable to connect to {{url}}",
      "message": "{{url}}に接続できません"
   },
   "fennecMenuItemBlockingOff": {
      "description": "Firefox-specific: appears as 'Ads Killer Plus (off)'",
      "message": "オフ"
   },
   "genericApplyChanges": {
      "description": "for generic 'Apply changes' buttons",
      "message": "変更を適用"
   },
   "genericBytes": {
      "description": "",
      "message": "バイト"
   },
   "genericRevert": {
      "description": "for generic 'Revert' buttons",
      "message": "元に戻す"
   },
   "genericSubmit": {
      "description": "for generic 'Submit' buttons",
      "message": "適用"
   },
   "logAll": {
      "description": "Appears in the logger's tab selector",
      "message": "全て"
   },
   "logBehindTheScene": {
      "description": "Pretty name for behind-the-scene network requests",
      "message": "バックグラウンド通信"
   },
   "logFilterPrompt": {
      "description": "English: filter log entries",
      "message": "絞り込み"
   },
   "logMaxEntriesTip": {
      "description": "Tooltip informaing that the input field is to set the maximum number of entries in the log",
      "message": "ログの最大件数"
   },
   "logRequestsHeaderDomain": {
      "description": "English: Domain",
      "message": "ドメイン"
   },
   "logRequestsHeaderFilter": {
      "description": "English: Filter",
      "message": "フィルター"
   },
   "logRequestsHeaderType": {
      "description": "English: Type",
      "message": "タイプ"
   },
   "logRequestsHeaderURL": {
      "description": "English: URL",
      "message": "URL"
   },
   "loggerStaticFilteringFinderSentence1": {
      "description": "Below this sentence, the filter lists in which the filter was found",
      "message": "静的フィルター {{filter}} が見つかりました:"
   },
   "loggerStaticFilteringHeader": {
      "description": "Small header to identify the static filtering section",
      "message": "静的フィルタリング"
   },
   "loggerStaticFilteringSentence": {
      "description": "Used in the static filtering wizard",
      "message": "ネットワークリクエストが {{type}} である場合に、{{br}}URLアドレスが {{url}} と一致し、{{br},{origin}} を発信源としている場合は {{action}} をします。{{br},{importance}} が存在する場合は例外フィルターと一致させます。"
   },
   "loggerStaticFilteringSentencePartAllow": {
      "description": "Used in the static filtering wizard",
      "message": "許可"
   },
   "loggerStaticFilteringSentencePartAnyOrigin": {
      "description": "Used in the static filtering wizard",
      "message": "全体"
   },
   "loggerStaticFilteringSentencePartAnyType": {
      "description": "Used in the static filtering wizard",
      "message": "任意の種類"
   },
   "loggerStaticFilteringSentencePartBlock": {
      "description": "Used in the static filtering wizard",
      "message": "ブロック"
   },
   "loggerStaticFilteringSentencePartImportant": {
      "description": "Used in the static filtering wizard",
      "message": "非例外"
   },
   "loggerStaticFilteringSentencePartNotImportant": {
      "description": "Used in the static filtering wizard",
      "message": "例外"
   },
   "loggerStaticFilteringSentencePartOrigin": {
      "description": "Used in the static filtering wizard",
      "message": "{{origin}} から"
   },
   "loggerStaticFilteringSentencePartType": {
      "description": "Used in the static filtering wizard",
      "message": "タイプ \"{{type}}\""
   },
   "loggerURLFilteringContextLabel": {
      "description": "Label for the context selector",
      "message": "コンテキスト:"
   },
   "loggerURLFilteringHeader": {
      "description": "Small header to identify the dynamic URL filtering section",
      "message": "ダイナミックURLフィルタリング"
   },
   "loggerURLFilteringTypeLabel": {
      "description": "Label for the type selector",
      "message": "タイプ: "
   },
   "name": {
      "message": "Ads Killer Adblocker Plus"
   },
   "pickerContextMenuEntry": {
      "description": "English: Block element",
      "message": "要素をブロック"
   },
   "pickerCosmeticFilters": {
      "description": "English: Cosmetic filters",
      "message": "要素隠蔽フィルター"
   },
   "pickerCosmeticFiltersHint": {
      "description": "English: Click, Ctrl-click",
      "message": "クリック、Ctrl+クリック"
   },
   "pickerCreate": {
      "description": "English: Create",
      "message": "作成"
   },
   "pickerNetFilters": {
      "description": "English: header for a type of filter in the element picker dialog",
      "message": "ネットフィルター"
   },
   "pickerPick": {
      "description": "English: Pick",
      "message": "選択"
   },
   "pickerPreview": {
      "description": "Element picker preview mode: will cause the elements matching the current filter to be removed from the page",
      "message": "プレビュー"
   },
   "pickerQuit": {
      "description": "English: Quit",
      "message": "終了"
   },
   "popup1pScriptRulePrompt": {
      "description": "",
      "message": "ファーストパーティースクリプト"
   },
   "popup3pAnyRulePrompt": {
      "description": "",
      "message": "サードパーティー"
   },
   "popup3pFrameRulePrompt": {
      "description": "",
      "message": "サードパーティーフレーム"
   },
   "popup3pPassiveRulePrompt": {
      "description": "",
      "message": "サードパーティ CSS/イメージ"
   },
   "popup3pScriptRulePrompt": {
      "description": "",
      "message": "サードパーティースクリプト"
   },
   "popupAnyRulePrompt": {
      "description": "",
      "message": "すべて"
   },
   "popupBlockedOnThisPagePrompt": {
      "description": "English: on this page",
      "message": "このページ"
   },
   "popupBlockedRequestPrompt": {
      "description": "English: requests blocked",
      "message": "ブロックされたリクエスト"
   },
   "popupBlockedSinceInstallPrompt": {
      "description": "English: since install",
      "message": "インストールしてから"
   },
   "popupBlockedStats": {
      "description": "Example: 15 or 13%",
      "message": "{{count}}個 か {{percent}}%"
   },
   "popupHitDomainCount": {
      "description": "appears in popup",
      "message": "{{count}} / {{total}}"
   },
   "popupHitDomainCountPrompt": {
      "description": "appears in popup",
      "message": "接続したドメイン"
   },
   "popupImageRulePrompt": {
      "description": "",
      "message": "画像"
   },
   "popupInlineScriptRulePrompt": {
      "description": "",
      "message": "インラインスクリプト"
   },
   "popupOr": {
      "description": "English: or",
      "message": "or"
   },
   "popupPowerSwitchInfo": {
      "description": "English: Click: disable/enable Ads Killer Plus for this site.\n\nCtrl+click: disable Ads Killer Plus only on this page.",
      "message": "Ads Killer Plus の有効 / 無効を切り替えます。\n\nクリック: サイト全体  \nCtrl+クリック: このページのみ"
   },
   "popupTipDashboard": {
      "description": "English: Click to open the dashboard",
      "message": "クリックしてダッシュボードを開く"
   },
   "popupTipGlobalRules": {
      "description": "Tooltip when hovering the top-most cell of the global-rules column.",
      "message": "グローバルルール: この列にあるルールは、すべてのサイトに適用されます。"
   },
   "popupTipLocalRules": {
      "description": "Tooltip when hovering the top-most cell of the local-rules column.",
      "message": "ローカルルール: この列にあるルールは、現在のサイトのみに適用されます。\nローカルルールはグローバルルールを上書きします。"
   },
   "popupTipLog": {
      "description": "Tooltip used for the logger icon in the panel",
      "message": "リクエストログへ移動"
   },
   "popupTipNoCosmeticFiltering": {
      "description": "Tooltip for the no-cosmetic-filtering per-site switch",
      "message": "このサイトの要素隠蔽フィルターを切り替える"
   },
   "popupTipNoLargeMedia": {
      "description": "Tooltip for the no-large-media per-site switch",
      "message": "このサイトの大部分のメディア要素のブロックを切り替えます"
   },
   "popupTipNoPopups": {
      "description": "Tooltip for the no-popups per-site switch",
      "message": "このサイトのすべてのポップアップのブロックを切り替えます"
   },
   "popupTipNoRemoteFonts": {
      "description": "Tooltip for the no-remote-fonts per-site switch",
      "message": "このサイトでリモートのフォントをブロックするか切り替えます"
   },
   "popupTipPicker": {
      "description": "English: Enter element picker mode",
      "message": "要素選択モードに移行"
   },
   "popupTipRevertRules": {
      "description": "Tooltip when hovering over the eraser in the dynamic filtering pane.",
      "message": "変更を元に戻すにはクリックしてください。"
   },
   "popupTipSaveRules": {
      "description": "Tooltip when hovering over the padlock in the dynamic filtering pane.",
      "message": "変更を保存するにはクリックしてください。"
   },
   "rulesCommit": {
      "description": "This will persist temporary rules",
      "message": "コミット"
   },
   "rulesDefaultFileName": {
      "description": "default file name to use",
      "message": "my-ublock-dynamic-rules_{{datetime}}.txt"
   },
   "rulesEdit": {
      "description": "Will enable manual-edit mode (textarea)",
      "message": "編集"
   },
   "rulesEditDiscard": {
      "description": "Will discard manually-edited content and exit manual-edit mode",
      "message": "破棄"
   },
   "rulesEditSave": {
      "description": "Will save manually-edited content and exit manual-edit mode",
      "message": "保存"
   },
   "rulesExport": {
      "description": "",
      "message": "ファイルへエクスポート"
   },
   "rulesFormatHint": {
      "description": "English: dynamic rule syntax and full documentation.",
      "message": "ルールの書き方: \u003Ccode>source destination type action\u003C/code> (\u003Ca href='https://github.com/gorhill/uBlock/wiki/Dynamic-filtering:-rule-syntax'>詳しい説明\u003C/a>)."
   },
   "rulesHint": {
      "description": "English: List of your dynamic filtering rules.",
      "message": "ダイナミックフィルタリングルールのリスト"
   },
   "rulesImport": {
      "description": "",
      "message": "ファイルからインポート"
   },
   "rulesPageName": {
      "description": "appears as tab name in dashboard",
      "message": "Myルール"
   },
   "rulesPermanentHeader": {
      "description": "header",
      "message": "恒久的なルール"
   },
   "rulesRevert": {
      "description": "This will remove all temporary rules",
      "message": "元に戻す"
   },
   "rulesTemporaryHeader": {
      "description": "header",
      "message": "一時的なルール"
   },
   "settingPerSiteSwitchGroup": {
      "description": "",
      "message": "デフォルトの動作"
   },
   "settingPerSiteSwitchGroupSynopsis": {
      "description": "",
      "message": "これらのデフォルトの動作は、サイトごとに上書きできます"
   },
   "settingsAdvancedUserPrompt": {
      "description": "",
      "message": "私は上級者です (\u003Ca href='https://github.com/gorhill/uBlock/wiki/Advanced-user-features'>※必ず読んでください\u003C/a>)"
   },
   "settingsAdvancedUserSettings": {
      "description": "For the tooltip of a link which gives access to advanced settings",
      "message": "詳細設定"
   },
   "settingsCloudStorageEnabledPrompt": {
      "description": "",
      "message": "クラウドストレージのサポートを有効にする"
   },
   "settingsCollapseBlockedPrompt": {
      "description": "English: Hide placeholders of blocked elements",
      "message": "ブロックされた要素の設置場所全てを非表示にする"
   },
   "settingsColorBlindPrompt": {
      "description": "English: Color-blind friendly",
      "message": "Ads Killer Plusを優しい色使いにする"
   },
   "settingsContextMenuPrompt": {
      "description": "English: Make use of context menu where appropriate",
      "message": "コンテキストメニューを適切な場合に使用する"
   },
   "settingsHyperlinkAuditingDisabledPrompt": {
      "description": "English: ",
      "message": "ハイパーリンクの監査を無効にする"
   },
   "settingsIconBadgePrompt": {
      "description": "English: Show the number of blocked requests on the icon",
      "message": "ブロックされたリクエスト数をアイコンに表示する"
   },
   "settingsLastBackupPrompt": {
      "description": "English: Last backup:",
      "message": "最後のバックアップ:"
   },
   "settingsLastRestorePrompt": {
      "description": "English: Last restore:",
      "message": "最後の復元:"
   },
   "settingsNoCosmeticFilteringPrompt": {
      "description": "",
      "message": "要素隠蔽フィルターを無効にする"
   },
   "settingsNoLargeMediaPrompt": {
      "description": "",
      "message": "{{input:number}} kB より大きいメディア要素をブロックする"
   },
   "settingsNoRemoteFontsPrompt": {
      "description": "",
      "message": "リモートフォントをブロックする"
   },
   "settingsPageName": {
      "description": "appears as tab name in dashboard",
      "message": " 設定"
   },
   "settingsPrefetchingDisabledPrompt": {
      "description": "English: ",
      "message": "先読みを無効にする (ブロックされたネットワークへの接続を防止するため)"
   },
   "settingsStorageUsed": {
      "description": "English: Storage used: {{}} bytes",
      "message": "使用中のストレージ:  {{value}} bytes"
   },
   "settingsTooltipsPrompt": {
      "description": "A checkbox in the Settings pane",
      "message": "ツールチップを無効にする"
   },
   "settingsWebRTCIPAddressHiddenPrompt": {
      "description": "English: ",
      "message": "ローカルIPアドレスの漏洩をもたらすWebRTCを防止する"
   },
   "short_name": {
      "message": "Ads Killer Adblocker Plus"
   },
   "showDashboardButton": {
      "description": "Firefox/Fennec-specific: Show Dashboard",
      "message": "ダッシュボードを表示"
   },
   "showNetworkLogButton": {
      "description": "Firefox/Fennec-specific: Show Logger",
      "message": "ネットワークリクエストログを表示"
   },
   "statsPageName": {
      "description": "Title for the logger window",
      "message": "Ads Killer Plus — ネットワークリクエストログ"
   },
   "subscriberConfirm": {
      "description": "English: The message seen by the user to confirm subscription to a ABP filter list",
      "message": "Ads Killer Plus: 以下のURLをカスタムフィルターに追加しますか？\n\nタイトル: \"{{title}}\"\nURL: {{url}}"
   },
   "whitelistApply": {
      "description": "English: Apply changes",
      "message": "変更を適用"
   },
   "whitelistExport": {
      "description": "English: Export",
      "message": "エクスポート"
   },
   "whitelistExportFilename": {
      "description": "English: my-ublock-whitelist_{{datetime}}.txt",
      "message": "my-ublock-whitelist_{{datetime}}.txt"
   },
   "whitelistImport": {
      "description": "English: Import and append",
      "message": "インポートと追加"
   },
   "whitelistPageName": {
      "description": "appears as tab name in dashboard",
      "message": "ホワイトリスト"
   },
   "whitelistPrompt": {
      "description": "English: An overview of the content of the dashboard's Whitelist pane.",
      "message": "Ads Killer Plusが無効になるホスト名の一覧です。1行につき1つのエントリで、無効なホスト名は無視されます。"
   }
}
