{
   "1pApplyChanges": {
      "description": "English: Apply changes",
      "message": "Terapkan perubahan"
   },
   "1pExport": {
      "description": "English: Export",
      "message": "Ekspor"
   },
   "1pExportFilename": {
      "description": "English: my-ublock-static-filters_{{datetime}}.txt",
      "message": "my-ublock-static-filters_{{datetime}}.txt"
   },
   "1pFormatHint": {
      "description": "English: One filter per line. A filter can be a plain hostname, or an Adblock Plus-compatible filter. Lines prefixed with &lsquo;!&rsquo; will be ignored.",
      "message": "Satu filter per baris. Filter dapat berupa nama host, atau filter yang kompatibel dengan Adblock Plus. Baris yang diawali dengan &lsquo;!&rsquo; akan diabaikan."
   },
   "1pImport": {
      "description": "English: Import and append",
      "message": "Impor dan tambahkan"
   },
   "1pPageName": {
      "description": "appears as tab name in dashboard",
      "message": "Filter Saya"
   },
   "3pApplyChanges": {
      "description": "English: Apply changes",
      "message": "Terapkan perubahan"
   },
   "3pAutoUpdatePrompt1": {
      "description": "A checkbox in the _3rd-party filters_ pane",
      "message": "Pembaruan otomatis daftar filter."
   },
   "3pExternalListNew": {
      "description": "English: new version available",
      "message": "versi baru tersedia"
   },
   "3pExternalListObsolete": {
      "description": "a filter list is 'out of date' (possibly needs to be updated)",
      "message": "usang"
   },
   "3pExternalListPurge": {
      "description": "English: purge cache",
      "message": "bersihkan tembolok"
   },
   "3pExternalListsApply": {
      "description": "English: Parse",
      "message": "Uraikan"
   },
   "3pExternalListsHint": {
      "description": "English: One URL per line. Lines prefixed with &lsquo;!&rsquo; will be ignored. Invalid URLs will be silently ignored.",
      "message": "Satu URL per baris. Baris yang diawali dengan &lsquo;!&rsquo; akan diabaikan. URL yang tidak valid akan diabaikan tanpa peringatan."
   },
   "3pGroupAds": {
      "description": "English: Ads",
      "message": "Iklan"
   },
   "3pGroupCustom": {
      "description": "English: Custom",
      "message": "Tersesuai"
   },
   "3pGroupMalware": {
      "description": "English: Malware domains",
      "message": "Domain malware"
   },
   "3pGroupMultipurpose": {
      "description": "English: Multipurpose",
      "message": "Serbaguna"
   },
   "3pGroupPrivacy": {
      "description": "English: Privacy",
      "message": "Privasi"
   },
   "3pGroupRegions": {
      "description": "English: Regions, languages",
      "message": "Wilayah, bahasa"
   },
   "3pGroupSocial": {
      "description": "English: Social",
      "message": "Sosial"
   },
   "3pIgnoreGenericCosmeticFilters": {
      "description": "This will cause uBO to ignore all generic cosmetic filters.",
      "message": "Abaikan filter tampilan generik"
   },
   "3pIgnoreGenericCosmeticFiltersInfo": {
      "description": "Describes the purpose of the 'Ignore generic cosmetic filters' feature.",
      "message": "\u003Cp>Filter tampilan generik adalah filter tampilan yang dibuat untuk diterapkan pada semua situs web.\u003Cp>Meskipun dikelola secara efisien oleh Ads Killer Plus, filter tampilan generik masih dapat menyebabkan peningkatan overhead memori ram dan CPU pada beberapa halaman web, terutama untuk halaman berukuran besar dan jarang diperbarui dalam waktu lama.\u003Cp>Mengaktifkan opsi ini akan menghilangkan peningkatan overhead memori ram dan CPU pada halaman web akibat diterapkannya filter tampilan generik, dan juga mengurangi penggunaan memori ram Ads Killer Plus itu sendiri.\u003Cp>Direkomendasikan untuk mengaktifkan opsi ini pada perangkat dengan ram kecil atau kekuatan CPU yang lemah."
   },
   "3pLastUpdate": {
      "description": "English: Last update: {{ago}}, where 'ago' will be replaced with something like '2 days ago'",
      "message": "Pembaruan terakhir: {{ago}}"
   },
   "3pListsOfBlockedHostsHeader": {
      "description": "English: Lists of blocked hosts",
      "message": "Daftar host yang diblokir"
   },
   "3pListsOfBlockedHostsPerListStats": {
      "description": "Appears aside each filter list in the _3rd-party filters_ pane",
      "message": "{{used}} digunakan dari {{total}}"
   },
   "3pListsOfBlockedHostsPrompt": {
      "description": "Appears at the top of the _3rd-party filters_ pane",
      "message": "{{netFilterCount}} filter jaringan + {{cosmeticFilterCount}} filter tampilan dari:"
   },
   "3pPageName": {
      "description": "appears as tab name in dashboard",
      "message": "Filter Pihak ke-3"
   },
   "3pParseAllABPHideFiltersInfo": {
      "description": "Describes the purpose of the 'Parse and enforce cosmetic filters' feature.",
      "message": "\u003Cp>Opsi ini memfungsikan penguraian dan memaksa-jalankan \u003Ca href=\"https://adblockplus.org/en/faq_internal#elemhide\">filter &ldquo;penyembunyian elemen&rdquo; yang kompatibel dengan Adblock Plus\u003C/a>. Filter ini pada dasarnya hanya sekedar penyaring tampilan, berfungsi untuk menyembunyikan elemen di halaman web yang dianggap sebagai gangguan visual, dan tidak dapat diblokir oleh filter berbasis permintaan jaringan.\u003C/p>\u003Cp>Memfungsikan fitur ini akan meningkatkan penggunaan memori \u003Ci>Ads Killer Plus\u003C/i>.\u003C/p>"
   },
   "3pParseAllABPHideFiltersPrompt1": {
      "description": "English: Parse and enforce Adblock+ element hiding filters.",
      "message": "Uraikan dan paksa jalankan filter tampilan."
   },
   "3pPurgeAll": {
      "description": "A button in the in the _3rd-party filters_ pane",
      "message": "Bersihkan semua tembolok"
   },
   "3pUpdateNow": {
      "description": "A button in the in the _3rd-party filters_ pane",
      "message": "Perbarui sekarang"
   },
   "aboutBackupDataButton": {
      "description": "Text for button to create a backup of all settings",
      "message": "Cadangkan ke berkas"
   },
   "aboutBackupFilename": {
      "description": "English: my-ublock-backup_{{datetime}}.txt",
      "message": "my-ublock-backup_{{datetime}}.txt"
   },
   "aboutChangelog": {
      "description": "English: Change log",
      "message": "Catatan perubahan"
   },
   "aboutCode": {
      "description": "English: Source code (GPLv3)",
      "message": "Kode sumber (GPLv3)"
   },
   "aboutContributors": {
      "description": "English: Contributors",
      "message": "Kontributor"
   },
   "aboutPageName": {
      "description": "appears as tab name in dashboard",
      "message": "Tentang"
   },
   "aboutResetDataButton": {
      "description": "English: Reset to default settings...",
      "message": "Kembalikan ke pengaturan bawaan..."
   },
   "aboutResetDataConfirm": {
      "description": "Message asking user to confirm reset",
      "message": "Semua pengaturan anda akan dihapus, dan Ads Killer Plus akan memulai ulang.\n\nKembalikan Ads Killer Plus ke pengaturan bawaan?"
   },
   "aboutRestoreDataButton": {
      "description": "English: Restore from file...",
      "message": "Pulihkan dari berkas..."
   },
   "aboutRestoreDataConfirm": {
      "description": "Message asking user to confirm restore",
      "message": "Semua pengaturan anda akan ditimpa dengan data yang dicadangkan pada {{time}}, dan Ads Killer Plus akan memulai ulang.\n\nTimpa semua pengaturan yang ada dengan data cadangan?"
   },
   "aboutRestoreDataError": {
      "description": "Message to display when an error occurred during restore",
      "message": "Data tidak dapat dibaca atau tidak valid"
   },
   "aboutSupport": {
      "description": "A link for where to get support",
      "message": "Dukungan"
   },
   "aboutWiki": {
      "description": "English: project' wiki on Github",
      "message": "Wiki"
   },
   "advancedSettingsPageName": {
      "description": "Title for the advanced settings page",
      "message": "Pengaturan lanjutan"
   },
   "advancedSettingsWarning": {
      "description": "A warning to users at the top of 'Advanced settings' page",
      "message": "Peringatan! Ubah pengaturan lanjutan berikut dengan resiko Anda sendiri."
   },
   "cloudDeviceNamePrompt": {
      "description": "used as a prompt for the user to provide a custom device name",
      "message": "Nama perangkat ini:"
   },
   "cloudNoData": {
      "description": "",
      "message": "...\n..."
   },
   "cloudPull": {
      "description": "tooltip",
      "message": "Impor dari penyimpanan awan"
   },
   "cloudPullAndMerge": {
      "description": "tooltip",
      "message": "Impor dari penyimpanan awan dan gabungkan dengan pengaturan saat ini"
   },
   "cloudPush": {
      "description": "tooltip",
      "message": "Ekspor ke penyimpanan awan"
   },
   "contextMenuTemporarilyAllowLargeMediaElements": {
      "description": "A context menu entry, present when large media elements have been blocked on the current site",
      "message": "Sementara izinkan elemen media besar"
   },
   "dashboardName": {
      "description": "English: Ads Killer Plus — Dashboard",
      "message": "Ads Killer Plus — Dasbor"
   },
   "description": {
      "message": "Eltávolítja a hirdetéseket az összes webhelyről!"
   },
   "docblockedBack": {
      "description": "English: Go back",
      "message": "Kembali"
   },
   "docblockedClose": {
      "description": "English: Close this window",
      "message": "Tutup jendela ini"
   },
   "docblockedDisablePermanent": {
      "description": "English: Permanently",
      "message": "Permanen"
   },
   "docblockedDisableTemporary": {
      "description": "English: Temporarily",
      "message": "Sementara"
   },
   "docblockedFoundIn": {
      "description": "English: List of filter list names follows",
      "message": "Ditemukan di:"
   },
   "docblockedNoParamsPrompt": {
      "description": "label to be used for the parameter-less URL: https://cloud.githubusercontent.com/assets/585534/9832014/bfb1b8f0-593b-11e5-8a27-fba472a5529a.png",
      "message": "tanpa parameter"
   },
   "docblockedProceed": {
      "description": "English: Disable strict blocking for {{hostname}} ...",
      "message": "Nonfungsikan pemblokiran ketat untuk {{hostname}}"
   },
   "docblockedPrompt1": {
      "description": "English: Ads Killer Plus has prevented the following page from loading:",
      "message": "Ads Killer Plus telah mencegah halaman berikut dimuat:"
   },
   "docblockedPrompt2": {
      "description": "English: Because of the following filter",
      "message": "Disebabkan oleh filter berikut"
   },
   "dummy": {
      "description": "so we dont need to deal with comma for last entry",
      "message": "Entri ini harus menjadi yang terakhir"
   },
   "elapsedManyDaysAgo": {
      "description": "English: {{value}} days ago",
      "message": "{{value}} hari yang lalu"
   },
   "elapsedManyHoursAgo": {
      "description": "English: {{value}} hours ago",
      "message": "{{value}} jam yang lalu"
   },
   "elapsedManyMinutesAgo": {
      "description": "English: {{value}} minutes ago",
      "message": "{{value}} menit yang lalu"
   },
   "elapsedOneDayAgo": {
      "description": "English: a day ago",
      "message": "sehari yang lalu"
   },
   "elapsedOneHourAgo": {
      "description": "English: an hour ago",
      "message": "sejam yang lalu"
   },
   "elapsedOneMinuteAgo": {
      "description": "English: a minute ago",
      "message": "semenit yang lalu"
   },
   "errorCantConnectTo": {
      "description": "English: Network error: unable to connect to {{url}}",
      "message": "Tidak dapat terhubung ke {{url}}"
   },
   "fennecMenuItemBlockingOff": {
      "description": "Firefox-specific: appears as 'Ads Killer Plus (off)'",
      "message": "mati"
   },
   "genericApplyChanges": {
      "description": "for generic 'Apply changes' buttons",
      "message": "Terapkan perubahan"
   },
   "genericBytes": {
      "description": "",
      "message": "byte"
   },
   "genericRevert": {
      "description": "for generic 'Revert' buttons",
      "message": "Urungkan"
   },
   "genericSubmit": {
      "description": "for generic 'Submit' buttons",
      "message": "Kirim"
   },
   "logAll": {
      "description": "Appears in the logger's tab selector",
      "message": "Semua"
   },
   "logBehindTheScene": {
      "description": "Pretty name for behind-the-scene network requests",
      "message": "Di balik layar"
   },
   "logFilterPrompt": {
      "description": "English: filter log entries",
      "message": "saring entri catatan"
   },
   "logMaxEntriesTip": {
      "description": "Tooltip informaing that the input field is to set the maximum number of entries in the log",
      "message": "Jumlah maximum entri catatan"
   },
   "logRequestsHeaderDomain": {
      "description": "English: Domain",
      "message": "Domain"
   },
   "logRequestsHeaderFilter": {
      "description": "English: Filter",
      "message": "Filter"
   },
   "logRequestsHeaderType": {
      "description": "English: Type",
      "message": "Jenis"
   },
   "logRequestsHeaderURL": {
      "description": "English: URL",
      "message": "URL"
   },
   "loggerStaticFilteringFinderSentence1": {
      "description": "Below this sentence, the filter lists in which the filter was found",
      "message": "Filter statis {{filter}} ditemukan di dalam:"
   },
   "loggerStaticFilteringHeader": {
      "description": "Small header to identify the static filtering section",
      "message": "Penyaringan statis"
   },
   "loggerStaticFilteringSentence": {
      "description": "Used in the static filtering wizard",
      "message": "{{action}} permintaan jaringan dari {{type}} {{br}}yang alamat URLnya cocok dengan {{url}} {{br}}dan yang berasal dari {{origin}},{{br},{importance}} ada pengecualian penyaring yang cocok."
   },
   "loggerStaticFilteringSentencePartAllow": {
      "description": "Used in the static filtering wizard",
      "message": "Izinkan"
   },
   "loggerStaticFilteringSentencePartAnyOrigin": {
      "description": "Used in the static filtering wizard",
      "message": "dari manapun"
   },
   "loggerStaticFilteringSentencePartAnyType": {
      "description": "Used in the static filtering wizard",
      "message": "semua jenis"
   },
   "loggerStaticFilteringSentencePartBlock": {
      "description": "Used in the static filtering wizard",
      "message": "Blokir"
   },
   "loggerStaticFilteringSentencePartImportant": {
      "description": "Used in the static filtering wizard",
      "message": "meskipun"
   },
   "loggerStaticFilteringSentencePartNotImportant": {
      "description": "Used in the static filtering wizard",
      "message": "kecuali ketika"
   },
   "loggerStaticFilteringSentencePartOrigin": {
      "description": "Used in the static filtering wizard",
      "message": "dari “{{origin}}”"
   },
   "loggerStaticFilteringSentencePartType": {
      "description": "Used in the static filtering wizard",
      "message": "jenis “{{type}}”"
   },
   "loggerURLFilteringContextLabel": {
      "description": "Label for the context selector",
      "message": "Konteks:"
   },
   "loggerURLFilteringHeader": {
      "description": "Small header to identify the dynamic URL filtering section",
      "message": "Penyaring URL Dinamis"
   },
   "loggerURLFilteringTypeLabel": {
      "description": "Label for the type selector",
      "message": "Jenis:"
   },
   "name": {
      "message": "Ads Killer Adblocker Plus"
   },
   "pickerContextMenuEntry": {
      "description": "English: Block element",
      "message": "Blok elemen"
   },
   "pickerCosmeticFilters": {
      "description": "English: Cosmetic filters",
      "message": "Filter tampilan"
   },
   "pickerCosmeticFiltersHint": {
      "description": "English: Click, Ctrl-click",
      "message": "Klik, Ctrl-klik"
   },
   "pickerCreate": {
      "description": "English: Create",
      "message": "Buat"
   },
   "pickerNetFilters": {
      "description": "English: header for a type of filter in the element picker dialog",
      "message": "Filter jaringan"
   },
   "pickerPick": {
      "description": "English: Pick",
      "message": "Pilih"
   },
   "pickerPreview": {
      "description": "Element picker preview mode: will cause the elements matching the current filter to be removed from the page",
      "message": "Pratinjau"
   },
   "pickerQuit": {
      "description": "English: Quit",
      "message": "Keluar"
   },
   "popup1pScriptRulePrompt": {
      "description": "",
      "message": "skrip pihak pertama"
   },
   "popup3pAnyRulePrompt": {
      "description": "",
      "message": "pihak ketiga"
   },
   "popup3pFrameRulePrompt": {
      "description": "",
      "message": "frame pihak ketiga"
   },
   "popup3pPassiveRulePrompt": {
      "description": "",
      "message": "css/gambar pihak ketiga"
   },
   "popup3pScriptRulePrompt": {
      "description": "",
      "message": "skrip pihak ketiga"
   },
   "popupAnyRulePrompt": {
      "description": "",
      "message": "semua"
   },
   "popupBlockedOnThisPagePrompt": {
      "description": "English: on this page",
      "message": "di laman ini"
   },
   "popupBlockedRequestPrompt": {
      "description": "English: requests blocked",
      "message": "permintaan diblokir"
   },
   "popupBlockedSinceInstallPrompt": {
      "description": "English: since install",
      "message": "sejak dipasang"
   },
   "popupBlockedStats": {
      "description": "Example: 15 or 13%",
      "message": "{{count}} atau {{percent}}%"
   },
   "popupHitDomainCount": {
      "description": "appears in popup",
      "message": "{{count}} dari {{total}}"
   },
   "popupHitDomainCountPrompt": {
      "description": "appears in popup",
      "message": "domain terhubung"
   },
   "popupImageRulePrompt": {
      "description": "",
      "message": "gambar"
   },
   "popupInlineScriptRulePrompt": {
      "description": "",
      "message": "skrip inline"
   },
   "popupOr": {
      "description": "English: or",
      "message": "atau"
   },
   "popupPowerSwitchInfo": {
      "description": "English: Click: disable/enable Ads Killer Plus for this site.\n\nCtrl+click: disable Ads Killer Plus only on this page.",
      "message": "Klik: nonfungsi/fungsikan Ads Killer Plus untuk situs ini.\n\nCtrl+klik: nonfungsikan Ads Killer Plus hanya di halaman ini."
   },
   "popupTipDashboard": {
      "description": "English: Click to open the dashboard",
      "message": "Klik untuk membuka dasbor"
   },
   "popupTipGlobalRules": {
      "description": "Tooltip when hovering the top-most cell of the global-rules column.",
      "message": "Aturan global: kolom ini untuk aturan yang diterapkan ke semua situs."
   },
   "popupTipLocalRules": {
      "description": "Tooltip when hovering the top-most cell of the local-rules column.",
      "message": "Aturan lokal: kolom ini untuk aturan yang diterapkan ke situs yang sedang dikunjungi saja.\nAturan lokal menimpa aturan global."
   },
   "popupTipLog": {
      "description": "Tooltip used for the logger icon in the panel",
      "message": "Buka pencatat log"
   },
   "popupTipNoCosmeticFiltering": {
      "description": "Tooltip for the no-cosmetic-filtering per-site switch",
      "message": "Alihkan penyaringan tampilan untuk situs ini"
   },
   "popupTipNoLargeMedia": {
      "description": "Tooltip for the no-large-media per-site switch",
      "message": "Aktifkan/Nonaktifkan pemblokiran elemen media besar untuk situs ini"
   },
   "popupTipNoPopups": {
      "description": "Tooltip for the no-popups per-site switch",
      "message": "Alihkan pemblokiran semua popup untuk situs ini"
   },
   "popupTipNoRemoteFonts": {
      "description": "Tooltip for the no-remote-fonts per-site switch",
      "message": "Jungkit pemblokiran fon pihak ketiga untuk situs ini"
   },
   "popupTipPicker": {
      "description": "English: Enter element picker mode",
      "message": "Memasuki mode pemilihan elemen"
   },
   "popupTipRevertRules": {
      "description": "Tooltip when hovering over the eraser in the dynamic filtering pane.",
      "message": "Klik untuk membatalkan ubahan Anda."
   },
   "popupTipSaveRules": {
      "description": "Tooltip when hovering over the padlock in the dynamic filtering pane.",
      "message": "Klik untuk membuat ubahan Anda permanen."
   },
   "rulesCommit": {
      "description": "This will persist temporary rules",
      "message": "Tetapkan"
   },
   "rulesDefaultFileName": {
      "description": "default file name to use",
      "message": "my-ublock-dynamic-rules_{{datetime}}.txt"
   },
   "rulesEdit": {
      "description": "Will enable manual-edit mode (textarea)",
      "message": "Sunting"
   },
   "rulesEditDiscard": {
      "description": "Will discard manually-edited content and exit manual-edit mode",
      "message": "Batal"
   },
   "rulesEditSave": {
      "description": "Will save manually-edited content and exit manual-edit mode",
      "message": "Simpan"
   },
   "rulesExport": {
      "description": "",
      "message": "Ekspor ke berkas"
   },
   "rulesFormatHint": {
      "description": "English: dynamic rule syntax and full documentation.",
      "message": "Aturan sintaksis: \u003Ccode>sumber tujuan jenis tindakan\u003C/code> (\u003Ca href='https://github.com/gorhill/uBlock/wiki/Dynamic-filtering:-rule-syntax'>dokumentasi lengkap\u003C/a>)."
   },
   "rulesHint": {
      "description": "English: List of your dynamic filtering rules.",
      "message": "Daftar aturan filter dinamis anda."
   },
   "rulesImport": {
      "description": "",
      "message": "Impor dari berkas..."
   },
   "rulesPageName": {
      "description": "appears as tab name in dashboard",
      "message": "Aturan Saya"
   },
   "rulesPermanentHeader": {
      "description": "header",
      "message": "Aturan permanen"
   },
   "rulesRevert": {
      "description": "This will remove all temporary rules",
      "message": "Urungkan"
   },
   "rulesTemporaryHeader": {
      "description": "header",
      "message": "Aturan sementara"
   },
   "settingPerSiteSwitchGroup": {
      "description": "",
      "message": "Perilaku bawaan"
   },
   "settingPerSiteSwitchGroupSynopsis": {
      "description": "",
      "message": "Perilaku bawaan ini bisa ditimpa pada masing-masing aturan situs"
   },
   "settingsAdvancedUserPrompt": {
      "description": "",
      "message": "Saya pengguna tingkat lanjut (\u003Ca href='https://github.com/gorhill/uBlock/wiki/Advanced-user-features'>bacaan wajib\u003C/a>)"
   },
   "settingsAdvancedUserSettings": {
      "description": "For the tooltip of a link which gives access to advanced settings",
      "message": "pengaturan lanjutan"
   },
   "settingsCloudStorageEnabledPrompt": {
      "description": "",
      "message": "Fungsikan dukungan penyimpanan awan"
   },
   "settingsCollapseBlockedPrompt": {
      "description": "English: Hide placeholders of blocked elements",
      "message": "Sembunyikan tempat elemen yang diblokir"
   },
   "settingsColorBlindPrompt": {
      "description": "English: Color-blind friendly",
      "message": "Ramah buta warna"
   },
   "settingsContextMenuPrompt": {
      "description": "English: Make use of context menu where appropriate",
      "message": "Pergunakan menu konteks jika sesuai"
   },
   "settingsHyperlinkAuditingDisabledPrompt": {
      "description": "English: ",
      "message": "Nonfungsikan pengauditan pranala"
   },
   "settingsIconBadgePrompt": {
      "description": "English: Show the number of blocked requests on the icon",
      "message": "Tampilkan jumlah permintaan yang diblokir pada ikon"
   },
   "settingsLastBackupPrompt": {
      "description": "English: Last backup:",
      "message": "Pencadangan terakhir:"
   },
   "settingsLastRestorePrompt": {
      "description": "English: Last restore:",
      "message": "Pemulihan terakhir:"
   },
   "settingsNoCosmeticFilteringPrompt": {
      "description": "",
      "message": "Nonfungsikan filter tampilan"
   },
   "settingsNoLargeMediaPrompt": {
      "description": "",
      "message": "Blokir elemen media yang lebih besar dari {{input:number}} kB"
   },
   "settingsNoRemoteFontsPrompt": {
      "description": "",
      "message": "Blokir fon rajuh"
   },
   "settingsPageName": {
      "description": "appears as tab name in dashboard",
      "message": "Pengaturan"
   },
   "settingsPrefetchingDisabledPrompt": {
      "description": "English: ",
      "message": "Nonfungsikan pra-ambil (untuk mencegah sambungan apapun untuk permintaan jaringan yang diblokir)"
   },
   "settingsStorageUsed": {
      "description": "English: Storage used: {{}} bytes",
      "message": "Penyimpanan terpakai: {{value}} bita"
   },
   "settingsTooltipsPrompt": {
      "description": "A checkbox in the Settings pane",
      "message": "Nonaktifkan tip alat"
   },
   "settingsWebRTCIPAddressHiddenPrompt": {
      "description": "English: ",
      "message": "Cegah WebRTC membocorkan alamat IP lokal"
   },
   "short_name": {
      "message": "Ads Killer Adblocker Plus"
   },
   "showDashboardButton": {
      "description": "Firefox/Fennec-specific: Show Dashboard",
      "message": "Tampilkan Dasbor"
   },
   "showNetworkLogButton": {
      "description": "Firefox/Fennec-specific: Show Logger",
      "message": "Tampilkan Pencatat"
   },
   "statsPageName": {
      "description": "Title for the logger window",
      "message": "Ads Killer Plus — Pencatat Log"
   },
   "subscriberConfirm": {
      "description": "English: The message seen by the user to confirm subscription to a ABP filter list",
      "message": "Ads Killer Plus: Tambahkan URL berikut ke daftar filter tersesuai anda?\n\nJudul: \"{{title}}\"\nURL: {{url}}"
   },
   "whitelistApply": {
      "description": "English: Apply changes",
      "message": "Terapkan perubahan"
   },
   "whitelistExport": {
      "description": "English: Export",
      "message": "Ekspor"
   },
   "whitelistExportFilename": {
      "description": "English: my-ublock-whitelist_{{datetime}}.txt",
      "message": "my-ublock-whitelist_{{datetime}}.txt"
   },
   "whitelistImport": {
      "description": "English: Import and append",
      "message": "Impor dan tambahkan"
   },
   "whitelistPageName": {
      "description": "appears as tab name in dashboard",
      "message": "Daftar Putih"
   },
   "whitelistPrompt": {
      "description": "English: An overview of the content of the dashboard's Whitelist pane.",
      "message": "Daftar putih domain atau halaman, Ads Killer Plus akan dinonaktifkan. Satu entri per baris. Entri yang tidak valid akan diabaikan dan dijadikan komentar."
   }
}
