{
   "1pApplyChanges": {
      "description": "English: Apply changes",
      "message": "변경사항 적용"
   },
   "1pExport": {
      "description": "English: Export",
      "message": "내보내기"
   },
   "1pExportFilename": {
      "description": "English: my-ublock-static-filters_{{datetime}}.txt",
      "message": "ublock-고정필터_{{datetime}}.txt"
   },
   "1pFormatHint": {
      "description": "English: One filter per line. A filter can be a plain hostname, or an Adblock Plus-compatible filter. Lines prefixed with &lsquo;!&rsquo; will be ignored.",
      "message": "한 줄에 한 개의 필터를 입력하세요. 필터는 순수 호스트이름, 혹은 Adblock Plus-호환 필터가 될 수 있습니다. 시작 부분이 &lsquo;!&rsquo; 로 시작되면 무시됩니다."
   },
   "1pImport": {
      "description": "English: Import and append",
      "message": "가져오기 및 추가하기"
   },
   "1pPageName": {
      "description": "appears as tab name in dashboard",
      "message": "내 필터"
   },
   "3pApplyChanges": {
      "description": "English: Apply changes",
      "message": "변경사항 적용"
   },
   "3pAutoUpdatePrompt1": {
      "description": "A checkbox in the _3rd-party filters_ pane",
      "message": "필터 목록 자동 업데이트"
   },
   "3pExternalListNew": {
      "description": "English: new version available",
      "message": "최신 버전 존재"
   },
   "3pExternalListObsolete": {
      "description": "a filter list is 'out of date' (possibly needs to be updated)",
      "message": "구버전"
   },
   "3pExternalListPurge": {
      "description": "English: purge cache",
      "message": "캐시 제거"
   },
   "3pExternalListsApply": {
      "description": "English: Parse",
      "message": "분석"
   },
   "3pExternalListsHint": {
      "description": "English: One URL per line. Lines prefixed with &lsquo;!&rsquo; will be ignored. Invalid URLs will be silently ignored.",
      "message": "한 줄에 한 개의 URL을 입력하세요. 시작 부분이 &lsquo;!&rsquo; 로 시작되면 무시됩니다. 존재하지 않는 URL은 자동으로 무시됩니다."
   },
   "3pGroupAds": {
      "description": "English: Ads",
      "message": "광고"
   },
   "3pGroupCustom": {
      "description": "English: Custom",
      "message": "사용자 지정"
   },
   "3pGroupMalware": {
      "description": "English: Malware domains",
      "message": "멀웨어 도메인"
   },
   "3pGroupMultipurpose": {
      "description": "English: Multipurpose",
      "message": "다목적"
   },
   "3pGroupPrivacy": {
      "description": "English: Privacy",
      "message": "개인정보"
   },
   "3pGroupRegions": {
      "description": "English: Regions, languages",
      "message": "지역, 언어"
   },
   "3pGroupSocial": {
      "description": "English: Social",
      "message": "소셜"
   },
   "3pIgnoreGenericCosmeticFilters": {
      "description": "This will cause uBO to ignore all generic cosmetic filters.",
      "message": "전체적 표면 필터 무시"
   },
   "3pIgnoreGenericCosmeticFiltersInfo": {
      "description": "Describes the purpose of the 'Ignore generic cosmetic filters' feature.",
      "message": "\u003Cp>전체적 표면 필터들은 방문하는 모든 사이트에 적용하는 표면 필터입니다. \u003Cp>Ads Killer Plus는 이를 효율적으로 적용하지만, 전체적 표면 필터들은 사이트의 크기와 유지시간에 따라 확연할 정도의 메모리 및 CPU 오버헤드를 줄 수 있습니다. \u003Cp>이 옵션을 활성화하면 전체적 표면 필터 적용으로 메모리 및 CPU 오버헤드를 제거하고, Ads Killer Plus 자체의 메모리 사용량도 줄입니다. \u003Cp>저전력 기기에 사용하는 것을 권장합니다."
   },
   "3pLastUpdate": {
      "description": "English: Last update: {{ago}}, where 'ago' will be replaced with something like '2 days ago'",
      "message": "마지막 업데이트: {{ago}}"
   },
   "3pListsOfBlockedHostsHeader": {
      "description": "English: Lists of blocked hosts",
      "message": "차단된 호스트 목록"
   },
   "3pListsOfBlockedHostsPerListStats": {
      "description": "Appears aside each filter list in the _3rd-party filters_ pane",
      "message": "{{total}}개 중 {{used}}개 사용 중"
   },
   "3pListsOfBlockedHostsPrompt": {
      "description": "Appears at the top of the _3rd-party filters_ pane",
      "message": "{{netFilterCount}} 네트워크 필터 ＋ {{cosmeticFilterCount}} 표면 필터:"
   },
   "3pPageName": {
      "description": "appears as tab name in dashboard",
      "message": "보조 필터"
   },
   "3pParseAllABPHideFiltersInfo": {
      "description": "Describes the purpose of the 'Parse and enforce cosmetic filters' feature.",
      "message": "\u003Cp>이 옵션은 \u003Ca href=\"https://adblockplus.org/en/faq_internal#elemhide\">애드블록 플러스-호환 &ldquo;구성 요소 감추기&rdquo; 필터\u003C/a>를 분석하고 적용하는 것을 활성화합니다. 이 필터는 기본적으로 웹 페이지에서 시각적 방해 요소들을 숨기는 역할을 하며, 네트워크 요청에 기반한 필터링 엔진에서 차단될 수 없습니다.\u003C/p>\u003Cp>이 기능을 활성화하면 \u003Ci>Ads Killer Plus\u003C/i>의 메모리 사용량이 증가합니다.\u003C/p>"
   },
   "3pParseAllABPHideFiltersPrompt1": {
      "description": "English: Parse and enforce Adblock+ element hiding filters.",
      "message": "표면 필터 분석 및 적용"
   },
   "3pPurgeAll": {
      "description": "A button in the in the _3rd-party filters_ pane",
      "message": "모든 캐시 제거"
   },
   "3pUpdateNow": {
      "description": "A button in the in the _3rd-party filters_ pane",
      "message": "지금 업데이트"
   },
   "aboutBackupDataButton": {
      "description": "Text for button to create a backup of all settings",
      "message": "파일로 백업하기"
   },
   "aboutBackupFilename": {
      "description": "English: my-ublock-backup_{{datetime}}.txt",
      "message": "ublock-백업_{{datetime}}.txt"
   },
   "aboutChangelog": {
      "description": "English: Change log",
      "message": "변경사항"
   },
   "aboutCode": {
      "description": "English: Source code (GPLv3)",
      "message": "소스 코드 (GPLv3)"
   },
   "aboutContributors": {
      "description": "English: Contributors",
      "message": "기여자"
   },
   "aboutPageName": {
      "description": "appears as tab name in dashboard",
      "message": "정보"
   },
   "aboutResetDataButton": {
      "description": "English: Reset to default settings...",
      "message": "기본 설정으로 초기화..."
   },
   "aboutResetDataConfirm": {
      "description": "Message asking user to confirm reset",
      "message": "모든 설정이 제거되며, Ads Killer Plus이 재시작됩니다.\n\nAds Killer Plus의 설정을 처음 설정으로 초기화하시겠습니까?"
   },
   "aboutRestoreDataButton": {
      "description": "English: Restore from file...",
      "message": "파일로부터 복원하기..."
   },
   "aboutRestoreDataConfirm": {
      "description": "Message asking user to confirm restore",
      "message": "모든 설정은 {{time}}에 백업된 데이터에 덮어씌워지며, Ads Killer Plus이 재시작됩니다.\n\n모든 존재하는 설정을 백업 데이터로 덮어씌우시겠습니까?"
   },
   "aboutRestoreDataError": {
      "description": "Message to display when an error occurred during restore",
      "message": "데이터를 읽을 수 없거나 잘못되었습니다."
   },
   "aboutSupport": {
      "description": "A link for where to get support",
      "message": "지원"
   },
   "aboutWiki": {
      "description": "English: project' wiki on Github",
      "message": "위키"
   },
   "advancedSettingsPageName": {
      "description": "Title for the advanced settings page",
      "message": "고급 설정"
   },
   "advancedSettingsWarning": {
      "description": "A warning to users at the top of 'Advanced settings' page",
      "message": "경고! 고급 옵션을 변경하여 발생하는 문제는 사용자에게 있습니다."
   },
   "cloudDeviceNamePrompt": {
      "description": "used as a prompt for the user to provide a custom device name",
      "message": "현재 기기의 이름:"
   },
   "cloudNoData": {
      "description": "",
      "message": "...\n..."
   },
   "cloudPull": {
      "description": "tooltip",
      "message": "클라우드 저장소로부터 가져오기"
   },
   "cloudPullAndMerge": {
      "description": "tooltip",
      "message": "클라우드 저장소의 설정 불러오기 및 현재 설정과 통합"
   },
   "cloudPush": {
      "description": "tooltip",
      "message": "클라우드 저장소로 내보내기"
   },
   "contextMenuTemporarilyAllowLargeMediaElements": {
      "description": "A context menu entry, present when large media elements have been blocked on the current site",
      "message": "이번만 대형 미디어 구성요소 허용"
   },
   "dashboardName": {
      "description": "English: Ads Killer Plus — Dashboard",
      "message": "Ads Killer Plus — 대쉬보드"
   },
   "description": {
      "message": "모든 웹 사이트에서 광고를 삭제합니다."
   },
   "docblockedBack": {
      "description": "English: Go back",
      "message": "돌아가기"
   },
   "docblockedClose": {
      "description": "English: Close this window",
      "message": "이 창을 닫기"
   },
   "docblockedDisablePermanent": {
      "description": "English: Permanently",
      "message": "항상"
   },
   "docblockedDisableTemporary": {
      "description": "English: Temporarily",
      "message": "이번만"
   },
   "docblockedFoundIn": {
      "description": "English: List of filter list names follows",
      "message": "다음 필터에서 찾음:"
   },
   "docblockedNoParamsPrompt": {
      "description": "label to be used for the parameter-less URL: https://cloud.githubusercontent.com/assets/585534/9832014/bfb1b8f0-593b-11e5-8a27-fba472a5529a.png",
      "message": "제외 매개 변수"
   },
   "docblockedProceed": {
      "description": "English: Disable strict blocking for {{hostname}} ...",
      "message": "{{hostname}}에서 엄격 차단기능 끄기"
   },
   "docblockedPrompt1": {
      "description": "English: Ads Killer Plus has prevented the following page from loading:",
      "message": "Ads Killer Plus이 다음 페이지를 로드하는것을 방지했습니다:"
   },
   "docblockedPrompt2": {
      "description": "English: Because of the following filter",
      "message": "다음 필터로 인해 방지됨"
   },
   "dummy": {
      "description": "so we dont need to deal with comma for last entry",
      "message": "This entry must be the last one"
   },
   "elapsedManyDaysAgo": {
      "description": "English: {{value}} days ago",
      "message": "{{value}} 일 전"
   },
   "elapsedManyHoursAgo": {
      "description": "English: {{value}} hours ago",
      "message": "{{value}} 시간 전"
   },
   "elapsedManyMinutesAgo": {
      "description": "English: {{value}} minutes ago",
      "message": "{{value}} 분 전"
   },
   "elapsedOneDayAgo": {
      "description": "English: a day ago",
      "message": "1 일 전"
   },
   "elapsedOneHourAgo": {
      "description": "English: an hour ago",
      "message": "1 시간 전"
   },
   "elapsedOneMinuteAgo": {
      "description": "English: a minute ago",
      "message": "1 분 전"
   },
   "errorCantConnectTo": {
      "description": "English: Network error: unable to connect to {{url}}",
      "message": "{{url}}에 연결할 수 없습니다."
   },
   "fennecMenuItemBlockingOff": {
      "description": "Firefox-specific: appears as 'Ads Killer Plus (off)'",
      "message": "끄기"
   },
   "genericApplyChanges": {
      "description": "for generic 'Apply changes' buttons",
      "message": "변경사항 적용"
   },
   "genericBytes": {
      "description": "",
      "message": "바이트"
   },
   "genericRevert": {
      "description": "for generic 'Revert' buttons",
      "message": "되돌리기"
   },
   "genericSubmit": {
      "description": "for generic 'Submit' buttons",
      "message": "제출"
   },
   "logAll": {
      "description": "Appears in the logger's tab selector",
      "message": "전체"
   },
   "logBehindTheScene": {
      "description": "Pretty name for behind-the-scene network requests",
      "message": "숨겨진 구성 요소"
   },
   "logFilterPrompt": {
      "description": "English: filter log entries",
      "message": "필터 로그 항목"
   },
   "logMaxEntriesTip": {
      "description": "Tooltip informaing that the input field is to set the maximum number of entries in the log",
      "message": "로그 항목의 최대 갯수"
   },
   "logRequestsHeaderDomain": {
      "description": "English: Domain",
      "message": "도메인"
   },
   "logRequestsHeaderFilter": {
      "description": "English: Filter",
      "message": "필터"
   },
   "logRequestsHeaderType": {
      "description": "English: Type",
      "message": "유형"
   },
   "logRequestsHeaderURL": {
      "description": "English: URL",
      "message": "URL"
   },
   "loggerStaticFilteringFinderSentence1": {
      "description": "Below this sentence, the filter lists in which the filter was found",
      "message": "{{filter}} 에서 찾은 고정 필터:"
   },
   "loggerStaticFilteringHeader": {
      "description": "Small header to identify the static filtering section",
      "message": "고정 필터링"
   },
   "loggerStaticFilteringSentence": {
      "description": "Used in the static filtering wizard",
      "message": "네트워크 요청이 {{type}} 일 경우,{{br}}URL 주소가 {{url}} 와 일치하고{{br},{origin}} 에서 비롯 되었을 경우 {{action}} 한다.{{br}}그리고 다음 예외 필터와 일치할 경우 {{importance}} 한다."
   },
   "loggerStaticFilteringSentencePartAllow": {
      "description": "Used in the static filtering wizard",
      "message": "허용"
   },
   "loggerStaticFilteringSentencePartAnyOrigin": {
      "description": "Used in the static filtering wizard",
      "message": "전체"
   },
   "loggerStaticFilteringSentencePartAnyType": {
      "description": "Used in the static filtering wizard",
      "message": "모든 종류"
   },
   "loggerStaticFilteringSentencePartBlock": {
      "description": "Used in the static filtering wizard",
      "message": "차단"
   },
   "loggerStaticFilteringSentencePartImportant": {
      "description": "Used in the static filtering wizard",
      "message": "비 예외 처리"
   },
   "loggerStaticFilteringSentencePartNotImportant": {
      "description": "Used in the static filtering wizard",
      "message": "예외 처리"
   },
   "loggerStaticFilteringSentencePartOrigin": {
      "description": "Used in the static filtering wizard",
      "message": "\"{{origin}}\""
   },
   "loggerStaticFilteringSentencePartType": {
      "description": "Used in the static filtering wizard",
      "message": "\"{{type}}\" 종류"
   },
   "loggerURLFilteringContextLabel": {
      "description": "Label for the context selector",
      "message": "페이지:"
   },
   "loggerURLFilteringHeader": {
      "description": "Small header to identify the dynamic URL filtering section",
      "message": "동적 URL 필터링"
   },
   "loggerURLFilteringTypeLabel": {
      "description": "Label for the type selector",
      "message": "유형:"
   },
   "name": {
      "message": "Ads Killer Adblocker Plus"
   },
   "pickerContextMenuEntry": {
      "description": "English: Block element",
      "message": "구성 요소 차단"
   },
   "pickerCosmeticFilters": {
      "description": "English: Cosmetic filters",
      "message": "표면 필터"
   },
   "pickerCosmeticFiltersHint": {
      "description": "English: Click, Ctrl-click",
      "message": "클릭, Ctrl-클릭"
   },
   "pickerCreate": {
      "description": "English: Create",
      "message": "생성"
   },
   "pickerNetFilters": {
      "description": "English: header for a type of filter in the element picker dialog",
      "message": "넷 필터"
   },
   "pickerPick": {
      "description": "English: Pick",
      "message": "선택"
   },
   "pickerPreview": {
      "description": "Element picker preview mode: will cause the elements matching the current filter to be removed from the page",
      "message": "미리보기"
   },
   "pickerQuit": {
      "description": "English: Quit",
      "message": "종료"
   },
   "popup1pScriptRulePrompt": {
      "description": "",
      "message": "주 스크립트"
   },
   "popup3pAnyRulePrompt": {
      "description": "",
      "message": "보조 필터"
   },
   "popup3pFrameRulePrompt": {
      "description": "",
      "message": "보조 프레임"
   },
   "popup3pPassiveRulePrompt": {
      "description": "",
      "message": "보조 CSS/이미지"
   },
   "popup3pScriptRulePrompt": {
      "description": "",
      "message": "보조 스크립트"
   },
   "popupAnyRulePrompt": {
      "description": "",
      "message": "전체"
   },
   "popupBlockedOnThisPagePrompt": {
      "description": "English: on this page",
      "message": "이 페이지에서"
   },
   "popupBlockedRequestPrompt": {
      "description": "English: requests blocked",
      "message": "요청 차단됨"
   },
   "popupBlockedSinceInstallPrompt": {
      "description": "English: since install",
      "message": "설치된 이후"
   },
   "popupBlockedStats": {
      "description": "Example: 15 or 13%",
      "message": "{{count}}개 / {{percent}}%"
   },
   "popupHitDomainCount": {
      "description": "appears in popup",
      "message": "{{total}}개 중 {{count}}개"
   },
   "popupHitDomainCountPrompt": {
      "description": "appears in popup",
      "message": "도메인 연결됨"
   },
   "popupImageRulePrompt": {
      "description": "",
      "message": "이미지"
   },
   "popupInlineScriptRulePrompt": {
      "description": "",
      "message": "인라인 스크립트"
   },
   "popupOr": {
      "description": "English: or",
      "message": "/"
   },
   "popupPowerSwitchInfo": {
      "description": "English: Click: disable/enable Ads Killer Plus for this site.\n\nCtrl+click: disable Ads Killer Plus only on this page.",
      "message": "클릭: 이 사이트에서 Ads Killer Plus을 켜고 끕니다.\n\nCtrl+클릭: 이 페이지에서 Ads Killer Plus을 끕니다."
   },
   "popupTipDashboard": {
      "description": "English: Click to open the dashboard",
      "message": "클릭하여 대쉬보드 열기"
   },
   "popupTipGlobalRules": {
      "description": "Tooltip when hovering the top-most cell of the global-rules column.",
      "message": "공용 규칙: 이 열은 모든 사이트에 적용되는 규칙 열 입니다."
   },
   "popupTipLocalRules": {
      "description": "Tooltip when hovering the top-most cell of the local-rules column.",
      "message": "로컬 규칙: 이 열은 현재 사이트만 적용되는 규칙 열 입니다.\n로컬 규칙은 공용 규칙보다 우선권을 가지고 있습니다."
   },
   "popupTipLog": {
      "description": "Tooltip used for the logger icon in the panel",
      "message": "로그로 이동"
   },
   "popupTipNoCosmeticFiltering": {
      "description": "Tooltip for the no-cosmetic-filtering per-site switch",
      "message": "이 사이트에서 시각적 필터링 토글"
   },
   "popupTipNoLargeMedia": {
      "description": "Tooltip for the no-large-media per-site switch",
      "message": "이 사이트에서만 적용되는 대형 미디어 구성요소 차단 기능을 켜고 끕니다."
   },
   "popupTipNoPopups": {
      "description": "Tooltip for the no-popups per-site switch",
      "message": "이 사이트에서 팝업 차단 토글"
   },
   "popupTipNoRemoteFonts": {
      "description": "Tooltip for the no-remote-fonts per-site switch",
      "message": "이 사이트에서 글꼴조정 차단 토글"
   },
   "popupTipPicker": {
      "description": "English: Enter element picker mode",
      "message": "구성 요소 선택기 모드로 진입"
   },
   "popupTipRevertRules": {
      "description": "Tooltip when hovering over the eraser in the dynamic filtering pane.",
      "message": "클릭하여 변경사항 적용을 되돌립니다."
   },
   "popupTipSaveRules": {
      "description": "Tooltip when hovering over the padlock in the dynamic filtering pane.",
      "message": "클릭하여 변경사항을 저장합니다."
   },
   "rulesCommit": {
      "description": "This will persist temporary rules",
      "message": "제출"
   },
   "rulesDefaultFileName": {
      "description": "default file name to use",
      "message": "ublock-동적규칙_{{datetime}}.txt"
   },
   "rulesEdit": {
      "description": "Will enable manual-edit mode (textarea)",
      "message": "편집"
   },
   "rulesEditDiscard": {
      "description": "Will discard manually-edited content and exit manual-edit mode",
      "message": "취소"
   },
   "rulesEditSave": {
      "description": "Will save manually-edited content and exit manual-edit mode",
      "message": "저장"
   },
   "rulesExport": {
      "description": "",
      "message": "파일로 내보내기..."
   },
   "rulesFormatHint": {
      "description": "English: dynamic rule syntax and full documentation.",
      "message": "규칙 문법: \u003Ccode>소스 페이지, 필터링 대상, 필터링할 타입, 적용할 조치\u003C/code> (\u003Ca href='https://github.com/gorhill/uBlock/wiki/Dynamic-filtering:-rule-syntax'>전체 설명서\u003C/a>)."
   },
   "rulesHint": {
      "description": "English: List of your dynamic filtering rules.",
      "message": "동적 필터링 규칙 목록입니다."
   },
   "rulesImport": {
      "description": "",
      "message": "파일로부터 불러오기..."
   },
   "rulesPageName": {
      "description": "appears as tab name in dashboard",
      "message": "내 규칙"
   },
   "rulesPermanentHeader": {
      "description": "header",
      "message": "영구 규칙"
   },
   "rulesRevert": {
      "description": "This will remove all temporary rules",
      "message": "되돌리기"
   },
   "rulesTemporaryHeader": {
      "description": "header",
      "message": "임시 규칙"
   },
   "settingPerSiteSwitchGroup": {
      "description": "",
      "message": "기본 동작"
   },
   "settingPerSiteSwitchGroupSynopsis": {
      "description": "",
      "message": "이 기본 동작들은 사이트 별로 정의 할 수 있습니다."
   },
   "settingsAdvancedUserPrompt": {
      "description": "",
      "message": "고급 사용자 모드 (\u003Ca href='https://github.com/gorhill/uBlock/wiki/Advanced-user-features'>필수로 읽어야 할 내용\u003C/a>)"
   },
   "settingsAdvancedUserSettings": {
      "description": "For the tooltip of a link which gives access to advanced settings",
      "message": "고급 설정"
   },
   "settingsCloudStorageEnabledPrompt": {
      "description": "",
      "message": "클라우드 저장소 활성화"
   },
   "settingsCollapseBlockedPrompt": {
      "description": "English: Hide placeholders of blocked elements",
      "message": "차단된 구성 요소의 자리 감추기"
   },
   "settingsColorBlindPrompt": {
      "description": "English: Color-blind friendly",
      "message": "색맹 최적화"
   },
   "settingsContextMenuPrompt": {
      "description": "English: Make use of context menu where appropriate",
      "message": "컨텍스트 메뉴를 상황에 맞게 사용"
   },
   "settingsHyperlinkAuditingDisabledPrompt": {
      "description": "English: ",
      "message": "하이퍼링크 검사 비활성화"
   },
   "settingsIconBadgePrompt": {
      "description": "English: Show the number of blocked requests on the icon",
      "message": "차단된 요청 개수를 아이콘에 표시"
   },
   "settingsLastBackupPrompt": {
      "description": "English: Last backup:",
      "message": "최근 백업:"
   },
   "settingsLastRestorePrompt": {
      "description": "English: Last restore:",
      "message": "최근 복원:"
   },
   "settingsNoCosmeticFilteringPrompt": {
      "description": "",
      "message": "표면 필터 비활성화"
   },
   "settingsNoLargeMediaPrompt": {
      "description": "",
      "message": "{{input:number}} KB 보다 큰 미디어 구성요소 차단"
   },
   "settingsNoRemoteFontsPrompt": {
      "description": "",
      "message": "글꼴 조종 차단"
   },
   "settingsPageName": {
      "description": "appears as tab name in dashboard",
      "message": "설정"
   },
   "settingsPrefetchingDisabledPrompt": {
      "description": "English: ",
      "message": "프리-페칭 비활성화 (차단된 네트워크 요청에 대해 모든 접속요청 방지)"
   },
   "settingsStorageUsed": {
      "description": "English: Storage used: {{}} bytes",
      "message": "스토리지 사용량: {{value}} 바이트"
   },
   "settingsTooltipsPrompt": {
      "description": "A checkbox in the Settings pane",
      "message": "툴팁 비활성화"
   },
   "settingsWebRTCIPAddressHiddenPrompt": {
      "description": "English: ",
      "message": "WebRTC로부터 로컬 IP 주소 유출을 방지"
   },
   "short_name": {
      "message": "Ads Killer Adblocker Plus"
   },
   "showDashboardButton": {
      "description": "Firefox/Fennec-specific: Show Dashboard",
      "message": "대쉬보드 보기"
   },
   "showNetworkLogButton": {
      "description": "Firefox/Fennec-specific: Show Logger",
      "message": "로그 보기"
   },
   "statsPageName": {
      "description": "Title for the logger window",
      "message": "Ads Killer Plus — 로그"
   },
   "subscriberConfirm": {
      "description": "English: The message seen by the user to confirm subscription to a ABP filter list",
      "message": "Ads Killer Plus: 선택한 URL을 사용자 지정 필터 목록에 추가하시겠습니까?\n\n제목: \"{{title}}\"\nURL: {{url}}"
   },
   "whitelistApply": {
      "description": "English: Apply changes",
      "message": "변경사항 적용"
   },
   "whitelistExport": {
      "description": "English: Export",
      "message": "내보내기"
   },
   "whitelistExportFilename": {
      "description": "English: my-ublock-whitelist_{{datetime}}.txt",
      "message": "ublock-제외목록_{{datetime}}.txt"
   },
   "whitelistImport": {
      "description": "English: Import and append",
      "message": "가져오기 및 추가하기"
   },
   "whitelistPageName": {
      "description": "appears as tab name in dashboard",
      "message": "제외 목록"
   },
   "whitelistPrompt": {
      "description": "English: An overview of the content of the dashboard's Whitelist pane.",
      "message": "목록에 있는 호스트들은 Ads Killer Plus에서 비활성화됩니다. 한 줄에 한 개씩 입력하세요. 존재하지 않는 호스트는 무시 및 주석 처리됩니다."
   }
}
